{
"meta":{"test_sets":[],"test_metrics":[],"learn_metrics":[{"best_value":"Min","name":"RMSE"}],"launch_mode":"Train","parameters":"","iteration_count":1000,"learn_sets":["learn"],"name":"experiment"},
"iterations":[
{"learn":[103107.6844],"iteration":0,"passed_time":0.0846729595,"remaining_time":84.58828654},
{"learn":[95406.9153],"iteration":1,"passed_time":0.1462281386,"remaining_time":72.96784116},
{"learn":[88525.89068],"iteration":2,"passed_time":0.2012580619,"remaining_time":66.88476257},
{"learn":[82384.62678],"iteration":3,"passed_time":0.2572862402,"remaining_time":64.0642738},
{"learn":[76941.34064],"iteration":4,"passed_time":0.3217801084,"remaining_time":64.03424157},
{"learn":[72156.52719],"iteration":5,"passed_time":0.3804490199,"remaining_time":63.02772096},
{"learn":[67908.13612],"iteration":6,"passed_time":0.4364417838,"remaining_time":61.91238447},
{"learn":[64028.05166],"iteration":7,"passed_time":0.4943248796,"remaining_time":61.29628507},
{"learn":[60611.42834],"iteration":8,"passed_time":0.5507783229,"remaining_time":60.64681311},
{"learn":[57608.53781],"iteration":9,"passed_time":0.6092020741,"remaining_time":60.31100534},
{"learn":[54831.4982],"iteration":10,"passed_time":0.6650174841,"remaining_time":59.79111743},
{"learn":[52518.95852],"iteration":11,"passed_time":0.7205440184,"remaining_time":59.32479085},
{"learn":[50182.53691],"iteration":12,"passed_time":0.7858340309,"remaining_time":59.66293757},
{"learn":[48251.42168],"iteration":13,"passed_time":0.8447044672,"remaining_time":59.49132891},
{"learn":[46615.71825],"iteration":14,"passed_time":0.8992114905,"remaining_time":59.04822121},
{"learn":[44989.04009],"iteration":15,"passed_time":0.9554744059,"remaining_time":58.76167596},
{"learn":[43639.67537],"iteration":16,"passed_time":1.016396437,"remaining_time":58.77162926},
{"learn":[42303.68069],"iteration":17,"passed_time":1.077549737,"remaining_time":58.78632455},
{"learn":[41246.11466],"iteration":18,"passed_time":1.134259022,"remaining_time":58.56358423},
{"learn":[40305.64477],"iteration":19,"passed_time":1.19669302,"remaining_time":58.63795796},
{"learn":[39376.08878],"iteration":20,"passed_time":1.275556747,"remaining_time":59.46524071},
{"learn":[38644.41726],"iteration":21,"passed_time":1.342921871,"remaining_time":59.69898135},
{"learn":[37859.7449],"iteration":22,"passed_time":1.400017661,"remaining_time":59.47031542},
{"learn":[37245.34587],"iteration":23,"passed_time":1.456087337,"remaining_time":59.21421839},
{"learn":[36662.69465],"iteration":24,"passed_time":1.519479805,"remaining_time":59.25971241},
{"learn":[36039.70736],"iteration":25,"passed_time":1.581523606,"remaining_time":59.24630741},
{"learn":[35490.26538],"iteration":26,"passed_time":1.641703674,"remaining_time":59.16213611},
{"learn":[35043.92318],"iteration":27,"passed_time":1.696038059,"remaining_time":58.87674975},
{"learn":[34656.02697],"iteration":28,"passed_time":1.754777875,"remaining_time":58.75480403},
{"learn":[34271.72238],"iteration":29,"passed_time":1.820315731,"remaining_time":58.8568753},
{"learn":[33969.16105],"iteration":30,"passed_time":1.874696264,"remaining_time":58.59937678},
{"learn":[33672.58346],"iteration":31,"passed_time":1.931358415,"remaining_time":58.42359204},
{"learn":[33322.29542],"iteration":32,"passed_time":1.996879196,"remaining_time":58.51461158},
{"learn":[33073.07008],"iteration":33,"passed_time":2.053658763,"remaining_time":58.34806956},
{"learn":[32790.91909],"iteration":34,"passed_time":2.111135059,"remaining_time":58.20700949},
{"learn":[32420.30172],"iteration":35,"passed_time":2.176761055,"remaining_time":58.28882379},
{"learn":[32217.70028],"iteration":36,"passed_time":2.244657836,"remaining_time":58.42177017},
{"learn":[32052.42805],"iteration":37,"passed_time":2.312082675,"remaining_time":58.53219825},
{"learn":[31766.97859],"iteration":38,"passed_time":2.378490797,"remaining_time":58.60845272},
{"learn":[31571.24167],"iteration":39,"passed_time":2.443549939,"remaining_time":58.64519853},
{"learn":[31433.63019],"iteration":40,"passed_time":2.513314537,"remaining_time":58.78704002},
{"learn":[31220.0748],"iteration":41,"passed_time":2.567940586,"remaining_time":58.57350193},
{"learn":[30983.57485],"iteration":42,"passed_time":2.623376196,"remaining_time":58.38537254},
{"learn":[30852.90972],"iteration":43,"passed_time":2.67684984,"remaining_time":58.16064653},
{"learn":[30716.61489],"iteration":44,"passed_time":2.735640341,"remaining_time":58.05636723},
{"learn":[30573.90748],"iteration":45,"passed_time":2.797239748,"remaining_time":58.01231999},
{"learn":[30454.5289],"iteration":46,"passed_time":2.852832386,"remaining_time":57.84572901},
{"learn":[30339.02539],"iteration":47,"passed_time":2.904900807,"remaining_time":57.61386602},
{"learn":[30229.40704],"iteration":48,"passed_time":2.962680349,"remaining_time":57.50018391},
{"learn":[30140.02655],"iteration":49,"passed_time":3.021083335,"remaining_time":57.40058336},
{"learn":[30050.32177],"iteration":50,"passed_time":3.080029643,"remaining_time":57.31270846},
{"learn":[29967.41814],"iteration":51,"passed_time":3.137921965,"remaining_time":57.20673121},
{"learn":[29881.58484],"iteration":52,"passed_time":3.201602086,"remaining_time":57.20598444},
{"learn":[29789.22959],"iteration":53,"passed_time":3.266158547,"remaining_time":57.21825899},
{"learn":[29618.84446],"iteration":54,"passed_time":3.329423271,"remaining_time":57.20554529},
{"learn":[29527.06662],"iteration":55,"passed_time":3.387413761,"remaining_time":57.10211769},
{"learn":[29467.82731],"iteration":56,"passed_time":3.45301223,"remaining_time":57.1261497},
{"learn":[29415.83692],"iteration":57,"passed_time":3.512795893,"remaining_time":57.05265053},
{"learn":[29337.35883],"iteration":58,"passed_time":3.572158174,"remaining_time":56.97289562},
{"learn":[29270.61535],"iteration":59,"passed_time":3.637396106,"remaining_time":56.98587232},
{"learn":[29201.54122],"iteration":60,"passed_time":3.709813778,"remaining_time":57.10680553},
{"learn":[29058.17644],"iteration":61,"passed_time":3.780393149,"remaining_time":57.19368989},
{"learn":[28996.70356],"iteration":62,"passed_time":3.843650659,"remaining_time":57.16667727},
{"learn":[28894.16623],"iteration":63,"passed_time":3.91046958,"remaining_time":57.19061761},
{"learn":[28833.73842],"iteration":64,"passed_time":3.978161597,"remaining_time":57.22432452},
{"learn":[28784.10852],"iteration":65,"passed_time":4.037951308,"remaining_time":57.14312912},
{"learn":[28715.5164],"iteration":66,"passed_time":4.097159387,"remaining_time":57.05447325},
{"learn":[28635.94774],"iteration":67,"passed_time":4.162933919,"remaining_time":57.05668253},
{"learn":[28546.56739],"iteration":68,"passed_time":4.217142331,"remaining_time":56.90086246},
{"learn":[28452.45643],"iteration":69,"passed_time":4.273962981,"remaining_time":56.78265104},
{"learn":[28398.58311],"iteration":70,"passed_time":4.328235494,"remaining_time":56.6328278},
{"learn":[28356.68966],"iteration":71,"passed_time":4.386922,"remaining_time":56.54255022},
{"learn":[28316.72683],"iteration":72,"passed_time":4.443636305,"remaining_time":56.4280939},
{"learn":[28271.43358],"iteration":73,"passed_time":4.495425211,"remaining_time":56.25356412},
{"learn":[28203.91833],"iteration":74,"passed_time":4.548270468,"remaining_time":56.09533578},
{"learn":[28121.35865],"iteration":75,"passed_time":4.603793279,"remaining_time":55.97243408},
{"learn":[28025.87731],"iteration":76,"passed_time":4.665662564,"remaining_time":55.92735775},
{"learn":[28000.13626],"iteration":77,"passed_time":4.717859473,"remaining_time":55.76751839},
{"learn":[27918.26614],"iteration":78,"passed_time":4.775816816,"remaining_time":55.6775606},
{"learn":[27837.04585],"iteration":79,"passed_time":4.83901046,"remaining_time":55.6486203},
{"learn":[27779.78079],"iteration":80,"passed_time":4.898679395,"remaining_time":55.578844},
{"learn":[27744.53505],"iteration":81,"passed_time":4.954868112,"remaining_time":55.47035277},
{"learn":[27652.08172],"iteration":82,"passed_time":5.008608742,"remaining_time":55.33607489},
{"learn":[27607.54705],"iteration":83,"passed_time":5.072008263,"remaining_time":55.30904249},
{"learn":[27571.88122],"iteration":84,"passed_time":5.130255415,"remaining_time":55.22569064},
{"learn":[27489.86654],"iteration":85,"passed_time":5.181816382,"remaining_time":55.07186248},
{"learn":[27433.5838],"iteration":86,"passed_time":5.233108004,"remaining_time":54.91755871},
{"learn":[27383.96942],"iteration":87,"passed_time":5.287432929,"remaining_time":54.79703217},
{"learn":[27323.55161],"iteration":88,"passed_time":5.350279408,"remaining_time":54.76521956},
{"learn":[27296.94316],"iteration":89,"passed_time":5.406804701,"remaining_time":54.66880308},
{"learn":[27260.70873],"iteration":90,"passed_time":5.458292225,"remaining_time":54.52294101},
{"learn":[27230.45081],"iteration":91,"passed_time":5.518696763,"remaining_time":54.46713761},
{"learn":[27207.01247],"iteration":92,"passed_time":5.575189212,"remaining_time":54.37308189},
{"learn":[27132.60249],"iteration":93,"passed_time":5.631964894,"remaining_time":54.28255526},
{"learn":[27074.30632],"iteration":94,"passed_time":5.690167438,"remaining_time":54.20633191},
{"learn":[27022.99929],"iteration":95,"passed_time":5.752110035,"remaining_time":54.16570283},
{"learn":[26985.27134],"iteration":96,"passed_time":5.810945897,"remaining_time":54.09571284},
{"learn":[26965.61043],"iteration":97,"passed_time":5.861301439,"remaining_time":53.94789692},
{"learn":[26938.1784],"iteration":98,"passed_time":5.913790553,"remaining_time":53.82146756},
{"learn":[26903.71043],"iteration":99,"passed_time":5.967343939,"remaining_time":53.70609545},
{"learn":[26875.11407],"iteration":100,"passed_time":6.034380655,"remaining_time":53.71196246},
{"learn":[26843.26651],"iteration":101,"passed_time":6.096160843,"remaining_time":53.67012193},
{"learn":[26815.87083],"iteration":102,"passed_time":6.161510924,"remaining_time":53.65898349},
{"learn":[26797.19889],"iteration":103,"passed_time":6.232214676,"remaining_time":53.69292644},
{"learn":[26761.53378],"iteration":104,"passed_time":6.298018327,"remaining_time":53.6831086},
{"learn":[26737.54126],"iteration":105,"passed_time":6.357442437,"remaining_time":53.61842961},
{"learn":[26716.80529],"iteration":106,"passed_time":6.421394798,"remaining_time":53.5916407},
{"learn":[26703.80335],"iteration":107,"passed_time":6.491709238,"remaining_time":53.61670964},
{"learn":[26680.98656],"iteration":108,"passed_time":6.553613511,"remaining_time":53.57128109},
{"learn":[26652.25739],"iteration":109,"passed_time":6.619667133,"remaining_time":53.55912498},
{"learn":[26616.89886],"iteration":110,"passed_time":6.685016984,"remaining_time":53.54036125},
{"learn":[26593.94491],"iteration":111,"passed_time":6.75346099,"remaining_time":53.54529785},
{"learn":[26572.9154],"iteration":112,"passed_time":6.817822442,"remaining_time":53.51688944},
{"learn":[26553.39477],"iteration":113,"passed_time":6.889943075,"remaining_time":53.54815408},
{"learn":[26507.72197],"iteration":114,"passed_time":6.947143491,"remaining_time":53.46279991},
{"learn":[26476.76598],"iteration":115,"passed_time":7.012499503,"remaining_time":53.44008242},
{"learn":[26462.18512],"iteration":116,"passed_time":7.063385026,"remaining_time":53.30742716},
{"learn":[26441.83317],"iteration":117,"passed_time":7.116627762,"remaining_time":53.193777},
{"learn":[26428.71497],"iteration":118,"passed_time":7.175734753,"remaining_time":53.12455729},
{"learn":[26380.66659],"iteration":119,"passed_time":7.242667269,"remaining_time":53.11289331},
{"learn":[26370.69732],"iteration":120,"passed_time":7.306436633,"remaining_time":53.07733719},
{"learn":[26338.25003],"iteration":121,"passed_time":7.364525136,"remaining_time":53.00043499},
{"learn":[26316.85266],"iteration":122,"passed_time":7.424853166,"remaining_time":52.93980672},
{"learn":[26285.80916],"iteration":123,"passed_time":7.488245608,"remaining_time":52.90083188},
{"learn":[26264.34274],"iteration":124,"passed_time":7.550326474,"remaining_time":52.85228532},
{"learn":[26244.66403],"iteration":125,"passed_time":7.606483447,"remaining_time":52.7624328},
{"learn":[26225.83894],"iteration":126,"passed_time":7.668312925,"remaining_time":52.71210381},
{"learn":[26213.9673],"iteration":127,"passed_time":7.725062889,"remaining_time":52.62699093},
{"learn":[26200.9764],"iteration":128,"passed_time":7.787205708,"remaining_time":52.57873002},
{"learn":[26164.48861],"iteration":129,"passed_time":7.842986583,"remaining_time":52.48767944},
{"learn":[26150.30304],"iteration":130,"passed_time":7.905696974,"remaining_time":52.44313489},
{"learn":[26133.78696],"iteration":131,"passed_time":7.966290013,"remaining_time":52.3843919},
{"learn":[26124.21245],"iteration":132,"passed_time":8.027250623,"remaining_time":52.32801722},
{"learn":[26100.61277],"iteration":133,"passed_time":8.083752089,"remaining_time":52.24275604},
{"learn":[26071.15969],"iteration":134,"passed_time":8.141009469,"remaining_time":52.16276438},
{"learn":[26051.89052],"iteration":135,"passed_time":8.200230016,"remaining_time":52.09557893},
{"learn":[26045.14328],"iteration":136,"passed_time":8.248644786,"remaining_time":51.96044125},
{"learn":[26032.7169],"iteration":137,"passed_time":8.31168414,"remaining_time":51.91791108},
{"learn":[26017.08604],"iteration":138,"passed_time":8.367318054,"remaining_time":51.82921471},
{"learn":[26009.04659],"iteration":139,"passed_time":8.424207895,"remaining_time":51.74870564},
{"learn":[25996.08484],"iteration":140,"passed_time":8.484964245,"remaining_time":51.69208714},
{"learn":[25985.47657],"iteration":141,"passed_time":8.535939545,"remaining_time":51.57631077},
{"learn":[25973.86236],"iteration":142,"passed_time":8.585136797,"remaining_time":51.45078486},
{"learn":[25948.82075],"iteration":143,"passed_time":8.645643445,"remaining_time":51.39354715},
{"learn":[25938.87587],"iteration":144,"passed_time":8.701818327,"remaining_time":51.31072186},
{"learn":[25922.83323],"iteration":145,"passed_time":8.750503602,"remaining_time":51.18445257},
{"learn":[25915.87814],"iteration":146,"passed_time":8.801776408,"remaining_time":51.07425358},
{"learn":[25902.54563],"iteration":147,"passed_time":8.855457368,"remaining_time":50.97871404},
{"learn":[25885.12491],"iteration":148,"passed_time":8.911154629,"remaining_time":50.89525228},
{"learn":[25871.20635],"iteration":149,"passed_time":8.960972174,"remaining_time":50.77884232},
{"learn":[25856.44208],"iteration":150,"passed_time":9.016686212,"remaining_time":50.69646751},
{"learn":[25841.08258],"iteration":151,"passed_time":9.073874226,"remaining_time":50.62266673},
{"learn":[25833.39131],"iteration":152,"passed_time":9.129324661,"remaining_time":50.53946397},
{"learn":[25819.53522],"iteration":153,"passed_time":9.185578284,"remaining_time":50.46103395},
{"learn":[25809.06307],"iteration":154,"passed_time":9.246518984,"remaining_time":50.4084422},
{"learn":[25781.34929],"iteration":155,"passed_time":9.319680589,"remaining_time":50.42186165},
{"learn":[25770.36747],"iteration":156,"passed_time":9.375142905,"remaining_time":50.33914311},
{"learn":[25742.84527],"iteration":157,"passed_time":9.43064988,"remaining_time":50.25700759},
{"learn":[25725.98893],"iteration":158,"passed_time":9.484550793,"remaining_time":50.16671206},
{"learn":[25706.33334],"iteration":159,"passed_time":9.539570565,"remaining_time":50.08274547},
{"learn":[25693.32113],"iteration":160,"passed_time":9.595258459,"remaining_time":50.00262017},
{"learn":[25680.18377],"iteration":161,"passed_time":9.647378204,"remaining_time":49.90433911},
{"learn":[25672.14497],"iteration":162,"passed_time":9.697616329,"remaining_time":49.79696238},
{"learn":[25661.78429],"iteration":163,"passed_time":9.752137245,"remaining_time":49.71211425},
{"learn":[25648.51236],"iteration":164,"passed_time":9.803684899,"remaining_time":49.61258721},
{"learn":[25643.3874],"iteration":165,"passed_time":9.850263919,"remaining_time":49.48867535},
{"learn":[25635.00317],"iteration":166,"passed_time":9.904307773,"remaining_time":49.4029244},
{"learn":[25628.74422],"iteration":167,"passed_time":9.961830274,"remaining_time":49.3347785},
{"learn":[25614.30734],"iteration":168,"passed_time":10.02625408,"remaining_time":49.30069315},
{"learn":[25605.10062],"iteration":169,"passed_time":10.07627829,"remaining_time":49.19594694},
{"learn":[25599.45747],"iteration":170,"passed_time":10.12790275,"remaining_time":49.09959873},
{"learn":[25585.64036],"iteration":171,"passed_time":10.19120567,"remaining_time":49.05999008},
{"learn":[25573.83011],"iteration":172,"passed_time":10.24007949,"remaining_time":48.95113143},
{"learn":[25564.9122],"iteration":173,"passed_time":10.29741786,"remaining_time":48.88314456},
{"learn":[25538.85919],"iteration":174,"passed_time":10.35429603,"remaining_time":48.81310987},
{"learn":[25531.5205],"iteration":175,"passed_time":10.40708991,"remaining_time":48.72410275},
{"learn":[25522.91889],"iteration":176,"passed_time":10.46064886,"remaining_time":48.63906221},
{"learn":[25504.97327],"iteration":177,"passed_time":10.51805925,"remaining_time":48.57216124},
{"learn":[25495.49926],"iteration":178,"passed_time":10.57675957,"remaining_time":48.51128274},
{"learn":[25476.22738],"iteration":179,"passed_time":10.65094876,"remaining_time":48.52098881},
{"learn":[25460.0344],"iteration":180,"passed_time":10.71330276,"remaining_time":48.47621527},
{"learn":[25451.97068],"iteration":181,"passed_time":10.77227304,"remaining_time":48.41604037},
{"learn":[25441.76956],"iteration":182,"passed_time":10.83271894,"remaining_time":48.36246651},
{"learn":[25438.09924],"iteration":183,"passed_time":10.88848693,"remaining_time":48.28807246},
{"learn":[25426.8354],"iteration":184,"passed_time":10.9533471,"remaining_time":48.25393453},
{"learn":[25417.04412],"iteration":185,"passed_time":11.00863805,"remaining_time":48.17758805},
{"learn":[25396.06033],"iteration":186,"passed_time":11.06701274,"remaining_time":48.11487355},
{"learn":[25380.38687],"iteration":187,"passed_time":11.1339642,"remaining_time":48.08924962},
{"learn":[25373.458],"iteration":188,"passed_time":11.19208343,"remaining_time":48.02528921},
{"learn":[25362.01329],"iteration":189,"passed_time":11.25189794,"remaining_time":47.96861755},
{"learn":[25348.85647],"iteration":190,"passed_time":11.30747367,"remaining_time":47.89395914},
{"learn":[25338.55743],"iteration":191,"passed_time":11.36537341,"remaining_time":47.82927977},
{"learn":[25330.46924],"iteration":192,"passed_time":11.42454869,"remaining_time":47.77000411},
{"learn":[25321.13298],"iteration":193,"passed_time":11.48346165,"remaining_time":47.70963964},
{"learn":[25313.43558],"iteration":194,"passed_time":11.53994433,"remaining_time":47.63925737},
{"learn":[25298.66639],"iteration":195,"passed_time":11.60069227,"remaining_time":47.58651318},
{"learn":[25294.81596],"iteration":196,"passed_time":11.65567869,"remaining_time":47.510203},
{"learn":[25282.5156],"iteration":197,"passed_time":11.71338268,"remaining_time":47.44511572},
{"learn":[25276.22212],"iteration":198,"passed_time":11.76515321,"remaining_time":47.35621971},
{"learn":[25261.19895],"iteration":199,"passed_time":11.81957548,"remaining_time":47.27830191},
{"learn":[25244.87565],"iteration":200,"passed_time":11.87771565,"remaining_time":47.21539706},
{"learn":[25231.80193],"iteration":201,"passed_time":11.92902072,"remaining_time":47.1255373},
{"learn":[25225.0891],"iteration":202,"passed_time":11.97898332,"remaining_time":47.03078672},
{"learn":[25204.79479],"iteration":203,"passed_time":12.03425182,"remaining_time":46.95717867},
{"learn":[25199.3602],"iteration":204,"passed_time":12.09121807,"remaining_time":46.8903335},
{"learn":[25194.44903],"iteration":205,"passed_time":12.13768326,"remaining_time":46.78310926},
{"learn":[25188.9203],"iteration":206,"passed_time":12.18765406,"remaining_time":46.6899018},
{"learn":[25180.69196],"iteration":207,"passed_time":12.23904781,"remaining_time":46.6025282},
{"learn":[25160.10998],"iteration":208,"passed_time":12.29937915,"remaining_time":46.54932492},
{"learn":[25154.57191],"iteration":209,"passed_time":12.35043645,"remaining_time":46.46116571},
{"learn":[25138.35406],"iteration":210,"passed_time":12.40654959,"remaining_time":46.39226361},
{"learn":[25130.62055],"iteration":211,"passed_time":12.46405076,"remaining_time":46.32864151},
{"learn":[25123.63557],"iteration":212,"passed_time":12.52353879,"remaining_time":46.27241797},
{"learn":[25118.15222],"iteration":213,"passed_time":12.57603867,"remaining_time":46.19049718},
{"learn":[25108.40373],"iteration":214,"passed_time":12.6310548,"remaining_time":46.1180373},
{"learn":[25098.82111],"iteration":215,"passed_time":12.69096808,"remaining_time":46.06351375},
{"learn":[25093.81447],"iteration":216,"passed_time":12.74394367,"remaining_time":45.98390736},
{"learn":[25075.13805],"iteration":217,"passed_time":12.80208438,"remaining_time":45.92307332},
{"learn":[25067.20798],"iteration":218,"passed_time":12.85494005,"remaining_time":45.84341634},
{"learn":[25051.5275],"iteration":219,"passed_time":12.91150412,"remaining_time":45.77715097},
{"learn":[25043.4417],"iteration":220,"passed_time":12.96977122,"remaining_time":45.71697639},
{"learn":[25036.1884],"iteration":221,"passed_time":13.02202935,"remaining_time":45.6357605},
{"learn":[25028.77952],"iteration":222,"passed_time":13.0739625,"remaining_time":45.55367203},
{"learn":[25017.88701],"iteration":223,"passed_time":13.13037642,"remaining_time":45.48737546},
{"learn":[25011.79218],"iteration":224,"passed_time":13.18754133,"remaining_time":45.42375347},
{"learn":[25006.37692],"iteration":225,"passed_time":13.24363463,"remaining_time":45.35651862},
{"learn":[24997.7456],"iteration":226,"passed_time":13.29815102,"remaining_time":45.28401208},
{"learn":[24986.77914],"iteration":227,"passed_time":13.35247329,"remaining_time":45.21100605},
{"learn":[24975.76273],"iteration":228,"passed_time":13.41042363,"remaining_time":45.15037823},
{"learn":[24966.00925],"iteration":229,"passed_time":13.46821922,"remaining_time":45.08925567},
{"learn":[24959.14068],"iteration":230,"passed_time":13.52661356,"remaining_time":45.03015511},
{"learn":[24952.89909],"iteration":231,"passed_time":13.58271458,"remaining_time":44.96346895},
{"learn":[24950.77783],"iteration":232,"passed_time":13.63331662,"remaining_time":44.87877188},
{"learn":[24937.13568],"iteration":233,"passed_time":13.68584466,"remaining_time":44.800671},
{"learn":[24932.17806],"iteration":234,"passed_time":13.73915701,"remaining_time":44.72534092},
{"learn":[24926.34492],"iteration":235,"passed_time":13.79548216,"remaining_time":44.65995072},
{"learn":[24919.24982],"iteration":236,"passed_time":13.85830033,"remaining_time":44.61554074},
{"learn":[24915.55074],"iteration":237,"passed_time":13.90874994,"remaining_time":44.53137585},
{"learn":[24909.91032],"iteration":238,"passed_time":13.96257462,"remaining_time":44.45823969},
{"learn":[24899.78228],"iteration":239,"passed_time":14.02522777,"remaining_time":44.41322128},
{"learn":[24892.66206],"iteration":240,"passed_time":14.08038008,"remaining_time":44.34443353},
{"learn":[24884.23667],"iteration":241,"passed_time":14.13849426,"remaining_time":44.28503575},
{"learn":[24871.15297],"iteration":242,"passed_time":14.1954752,"remaining_time":44.22211821},
{"learn":[24864.96274],"iteration":243,"passed_time":14.25204321,"remaining_time":44.15796995},
{"learn":[24851.9008],"iteration":244,"passed_time":14.30936208,"remaining_time":44.09619744},
{"learn":[24845.59285],"iteration":245,"passed_time":14.36247621,"remaining_time":44.02157344},
{"learn":[24839.53944],"iteration":246,"passed_time":14.41432454,"remaining_time":43.94326469},
{"learn":[24833.1757],"iteration":247,"passed_time":14.47631317,"remaining_time":43.89591737},
{"learn":[24824.02661],"iteration":248,"passed_time":14.5384888,"remaining_time":43.84901644},
{"learn":[24817.78772],"iteration":249,"passed_time":14.59527798,"remaining_time":43.78583394},
{"learn":[24810.37811],"iteration":250,"passed_time":14.65054634,"remaining_time":43.71816418},
{"learn":[24800.86914],"iteration":251,"passed_time":14.71665757,"remaining_time":43.68277723},
{"learn":[24785.31864],"iteration":252,"passed_time":14.77469986,"remaining_time":43.62332329},
{"learn":[24772.805],"iteration":253,"passed_time":14.83558242,"remaining_time":43.57222237},
{"learn":[24765.94432],"iteration":254,"passed_time":14.89330858,"remaining_time":43.51182312},
{"learn":[24759.9375],"iteration":255,"passed_time":14.95748377,"remaining_time":43.47018721},
{"learn":[24755.85313],"iteration":256,"passed_time":15.01404051,"remaining_time":43.40635057},
{"learn":[24749.52841],"iteration":257,"passed_time":15.06841943,"remaining_time":43.33630703},
{"learn":[24743.45619],"iteration":258,"passed_time":15.12731076,"remaining_time":43.27929449},
{"learn":[24736.50156],"iteration":259,"passed_time":15.18996476,"remaining_time":43.23297663},
{"learn":[24730.69644],"iteration":260,"passed_time":15.25834937,"remaining_time":43.20275933},
{"learn":[24722.48098],"iteration":261,"passed_time":15.32346543,"remaining_time":43.16304385},
{"learn":[24718.62121],"iteration":262,"passed_time":15.3929198,"remaining_time":43.13529236},
{"learn":[24710.56841],"iteration":263,"passed_time":15.46281173,"remaining_time":43.10844481},
{"learn":[24698.97749],"iteration":264,"passed_time":15.53809341,"remaining_time":43.09622134},
{"learn":[24693.12636],"iteration":265,"passed_time":15.60744207,"remaining_time":43.06715217},
{"learn":[24681.9756],"iteration":266,"passed_time":15.68380173,"remaining_time":43.05702872},
{"learn":[24676.63392],"iteration":267,"passed_time":15.74535235,"remaining_time":43.00596238},
{"learn":[24673.19354],"iteration":268,"passed_time":15.80593341,"remaining_time":42.95218337},
{"learn":[24665.64356],"iteration":269,"passed_time":15.87606502,"remaining_time":42.92417579},
{"learn":[24659.99425],"iteration":270,"passed_time":15.94179342,"remaining_time":42.88401256},
{"learn":[24656.10011],"iteration":271,"passed_time":15.99621867,"remaining_time":42.81340879},
{"learn":[24652.33756],"iteration":272,"passed_time":16.0542361,"remaining_time":42.75248955},
{"learn":[24649.40133],"iteration":273,"passed_time":16.1128751,"remaining_time":42.6932384},
{"learn":[24646.28337],"iteration":274,"passed_time":16.16855152,"remaining_time":42.62618128},
{"learn":[24641.18768],"iteration":275,"passed_time":16.22700928,"remaining_time":42.5665026},
{"learn":[24638.68642],"iteration":276,"passed_time":16.27947143,"remaining_time":42.49118355},
{"learn":[24622.28549],"iteration":277,"passed_time":16.34042869,"remaining_time":42.43809178},
{"learn":[24616.09259],"iteration":278,"passed_time":16.39470171,"remaining_time":42.36767001},
{"learn":[24611.12463],"iteration":279,"passed_time":16.44919607,"remaining_time":42.29793275},
{"learn":[24609.42108],"iteration":280,"passed_time":16.49914295,"remaining_time":42.21666825},
{"learn":[24600.90588],"iteration":281,"passed_time":16.56178315,"remaining_time":42.16794434},
{"learn":[24589.87054],"iteration":282,"passed_time":16.62127291,"remaining_time":42.11114021},
{"learn":[24587.52899],"iteration":283,"passed_time":16.67759317,"remaining_time":42.04632644},
{"learn":[24581.20502],"iteration":284,"passed_time":16.73300002,"remaining_time":41.97928074},
{"learn":[24577.00578],"iteration":285,"passed_time":16.79011022,"remaining_time":41.91656886},
{"learn":[24566.50439],"iteration":286,"passed_time":16.84561012,"remaining_time":41.84989553},
{"learn":[24562.87408],"iteration":287,"passed_time":16.90097304,"remaining_time":41.78296113},
{"learn":[24553.89757],"iteration":288,"passed_time":16.95811545,"remaining_time":41.72048472},
{"learn":[24548.56425],"iteration":289,"passed_time":17.01388752,"remaining_time":41.65469012},
{"learn":[24536.86097],"iteration":290,"passed_time":17.07580273,"remaining_time":41.60393173},
{"learn":[24533.88385],"iteration":291,"passed_time":17.12725721,"remaining_time":41.52773324},
{"learn":[24526.94264],"iteration":292,"passed_time":17.18203986,"remaining_time":41.4597344},
{"learn":[24525.98306],"iteration":293,"passed_time":17.228769,"remaining_time":41.37248609},
{"learn":[24516.79878],"iteration":294,"passed_time":17.29301223,"remaining_time":41.32736822},
{"learn":[24511.61657],"iteration":295,"passed_time":17.3449298,"remaining_time":41.25280602},
{"learn":[24508.45917],"iteration":296,"passed_time":17.39954034,"remaining_time":41.18477056},
{"learn":[24505.62121],"iteration":297,"passed_time":17.45958194,"remaining_time":41.1296192},
{"learn":[24498.72722],"iteration":298,"passed_time":17.51549537,"remaining_time":41.0647567},
{"learn":[24491.47383],"iteration":299,"passed_time":17.57104642,"remaining_time":40.99910831},
{"learn":[24484.55091],"iteration":300,"passed_time":17.62777929,"remaining_time":40.93627151},
{"learn":[24477.0083],"iteration":301,"passed_time":17.68930929,"remaining_time":40.88456254},
{"learn":[24469.08889],"iteration":302,"passed_time":17.74817623,"remaining_time":40.82666282},
{"learn":[24461.45551],"iteration":303,"passed_time":17.80621905,"remaining_time":40.76686992},
{"learn":[24455.82322],"iteration":304,"passed_time":17.86246795,"remaining_time":40.70300073},
{"learn":[24451.273],"iteration":305,"passed_time":17.92321084,"remaining_time":40.6493736},
{"learn":[24445.27062],"iteration":306,"passed_time":17.9733554,"remaining_time":40.5717762},
{"learn":[24442.11449],"iteration":307,"passed_time":18.02276141,"remaining_time":40.49269771},
{"learn":[24437.12162],"iteration":308,"passed_time":18.07202329,"remaining_time":40.41348899},
{"learn":[24430.76198],"iteration":309,"passed_time":18.12993645,"remaining_time":40.35372951},
{"learn":[24424.63836],"iteration":310,"passed_time":18.18395933,"remaining_time":40.28536328},
{"learn":[24416.70323],"iteration":311,"passed_time":18.2365606,"remaining_time":40.21395415},
{"learn":[24407.3952],"iteration":312,"passed_time":18.29028807,"remaining_time":40.14513707},
{"learn":[24400.66705],"iteration":313,"passed_time":18.34867724,"remaining_time":40.08660059},
{"learn":[24392.70895],"iteration":314,"passed_time":18.4046975,"remaining_time":40.0229136},
{"learn":[24382.86035],"iteration":315,"passed_time":18.45788015,"remaining_time":39.95313298},
{"learn":[24378.7851],"iteration":316,"passed_time":18.51186484,"remaining_time":39.88518512},
{"learn":[24375.89781],"iteration":317,"passed_time":18.56411832,"remaining_time":39.81361225},
{"learn":[24368.36603],"iteration":318,"passed_time":18.61843026,"remaining_time":39.74655488},
{"learn":[24364.11065],"iteration":319,"passed_time":18.67163446,"remaining_time":39.67722323},
{"learn":[24363.26218],"iteration":320,"passed_time":18.71915618,"remaining_time":39.5959721},
{"learn":[24359.04605],"iteration":321,"passed_time":18.77353724,"remaining_time":39.52937345},
{"learn":[24351.95304],"iteration":322,"passed_time":18.82997987,"remaining_time":39.46717144},
{"learn":[24347.48896],"iteration":323,"passed_time":18.88501608,"remaining_time":39.40207058},
{"learn":[24340.36962],"iteration":324,"passed_time":18.93707688,"remaining_time":39.33085198},
{"learn":[24336.58899],"iteration":325,"passed_time":18.99270219,"remaining_time":39.26712049},
{"learn":[24328.57864],"iteration":326,"passed_time":19.05477901,"remaining_time":39.21671643},
{"learn":[24324.33915],"iteration":327,"passed_time":19.10603668,"remaining_time":39.14407515},
{"learn":[24319.70778],"iteration":328,"passed_time":19.16242955,"remaining_time":39.08203717},
{"learn":[24315.51466],"iteration":329,"passed_time":19.22184942,"remaining_time":39.02617913},
{"learn":[24306.64474],"iteration":330,"passed_time":19.27806679,"remaining_time":38.96382683},
{"learn":[24300.21483],"iteration":331,"passed_time":19.33329581,"remaining_time":38.8995229},
{"learn":[24297.045],"iteration":332,"passed_time":19.39746671,"remaining_time":38.85318408},
{"learn":[24292.78378],"iteration":333,"passed_time":19.46557648,"remaining_time":38.81459262},
{"learn":[24288.48974],"iteration":334,"passed_time":19.52034282,"remaining_time":38.74933723},
{"learn":[24280.37755],"iteration":335,"passed_time":19.57225231,"remaining_time":38.67849861},
{"learn":[24272.69586],"iteration":336,"passed_time":19.62997001,"remaining_time":38.61919916},
{"learn":[24268.68501],"iteration":337,"passed_time":19.68735779,"remaining_time":38.5592629},
{"learn":[24265.54862],"iteration":338,"passed_time":19.7429767,"remaining_time":38.49589263},
{"learn":[24261.17184],"iteration":339,"passed_time":19.7988981,"remaining_time":38.43315513},
{"learn":[24256.51812],"iteration":340,"passed_time":19.85036105,"remaining_time":38.36184143},
{"learn":[24251.20339],"iteration":341,"passed_time":19.90972945,"remaining_time":38.30585374},
{"learn":[24248.17962],"iteration":342,"passed_time":19.96290228,"remaining_time":38.237979},
{"learn":[24245.13862],"iteration":343,"passed_time":20.01488795,"remaining_time":38.16792586},
{"learn":[24241.2903],"iteration":344,"passed_time":20.06429226,"remaining_time":38.09307662},
{"learn":[24235.065],"iteration":345,"passed_time":20.11446804,"remaining_time":38.01983265},
{"learn":[24228.8706],"iteration":346,"passed_time":20.16820717,"remaining_time":37.95342732},
{"learn":[24221.29285],"iteration":347,"passed_time":20.22781545,"remaining_time":37.89809101},
{"learn":[24217.31529],"iteration":348,"passed_time":20.28250655,"remaining_time":37.83355807},
{"learn":[24214.128],"iteration":349,"passed_time":20.33945695,"remaining_time":37.7732772},
{"learn":[24205.25753],"iteration":350,"passed_time":20.39059263,"remaining_time":37.70226386},
{"learn":[24202.52315],"iteration":351,"passed_time":20.44313464,"remaining_time":37.6339524},
{"learn":[24197.98356],"iteration":352,"passed_time":20.4967623,"remaining_time":37.56772014},
{"learn":[24191.14292],"iteration":353,"passed_time":20.55371506,"remaining_time":37.50762691},
{"learn":[24182.95481],"iteration":354,"passed_time":20.60841906,"remaining_time":37.44346562},
{"learn":[24179.83806],"iteration":355,"passed_time":20.65944252,"remaining_time":37.37269939},
{"learn":[24174.56632],"iteration":356,"passed_time":20.71345127,"remaining_time":37.30742063},
{"learn":[24168.16997],"iteration":357,"passed_time":20.77176478,"remaining_time":37.24992456},
{"learn":[24161.87017],"iteration":358,"passed_time":20.83258388,"remaining_time":37.19689768},
{"learn":[24157.32671],"iteration":359,"passed_time":20.88785194,"remaining_time":37.13395901},
{"learn":[24149.78162],"iteration":360,"passed_time":20.9432377,"remaining_time":37.07127117},
{"learn":[24147.78238],"iteration":361,"passed_time":21.00098639,"remaining_time":37.01278816},
{"learn":[24133.41519],"iteration":362,"passed_time":21.05717672,"remaining_time":36.95157458},
{"learn":[24128.57454],"iteration":363,"passed_time":21.11051046,"remaining_time":36.88539739},
{"learn":[24126.42522],"iteration":364,"passed_time":21.16298188,"remaining_time":36.8177904},
{"learn":[24125.54207],"iteration":365,"passed_time":21.20953169,"remaining_time":36.74000844},
{"learn":[24120.18833],"iteration":366,"passed_time":21.26534139,"remaining_time":36.67836812},
{"learn":[24115.13342],"iteration":367,"passed_time":21.3228672,"remaining_time":36.61970672},
{"learn":[24110.69522],"iteration":368,"passed_time":21.37562519,"remaining_time":36.55289837},
{"learn":[24107.88424],"iteration":369,"passed_time":21.43046776,"remaining_time":36.48971538},
{"learn":[24104.72873],"iteration":370,"passed_time":21.48329819,"remaining_time":36.42316594},
{"learn":[24097.95665],"iteration":371,"passed_time":21.53994542,"remaining_time":36.36313367},
{"learn":[24092.70511],"iteration":372,"passed_time":21.58979819,"remaining_time":36.2916983},
{"learn":[24087.04276],"iteration":373,"passed_time":21.6422183,"remaining_time":36.22467554},
{"learn":[24083.16176],"iteration":374,"passed_time":21.6972704,"remaining_time":36.16211734},
{"learn":[24079.66087],"iteration":375,"passed_time":21.74951636,"remaining_time":36.09494204},
{"learn":[24075.99298],"iteration":376,"passed_time":21.80028367,"remaining_time":36.02540246},
{"learn":[24069.36942],"iteration":377,"passed_time":21.86363568,"remaining_time":35.97667035},
{"learn":[24066.89351],"iteration":378,"passed_time":21.92504819,"remaining_time":35.92468318},
{"learn":[24060.21356],"iteration":379,"passed_time":21.98629456,"remaining_time":35.87237534},
{"learn":[24054.79697],"iteration":380,"passed_time":22.04069823,"remaining_time":35.80890342},
{"learn":[24047.17786],"iteration":381,"passed_time":22.10322837,"remaining_time":35.758626},
{"learn":[24043.54329],"iteration":382,"passed_time":22.1550817,"remaining_time":35.69108462},
{"learn":[24033.78735],"iteration":383,"passed_time":22.21248975,"remaining_time":35.63253564},
{"learn":[24032.17684],"iteration":384,"passed_time":22.26061654,"remaining_time":35.55916668},
{"learn":[24028.39627],"iteration":385,"passed_time":22.31568921,"remaining_time":35.49697714},
{"learn":[24024.13303],"iteration":386,"passed_time":22.37281285,"remaining_time":35.43807307},
{"learn":[24019.18784],"iteration":387,"passed_time":22.4242414,"remaining_time":35.3701952},
{"learn":[24013.27197],"iteration":388,"passed_time":22.47645675,"remaining_time":35.30363773},
{"learn":[24007.28862],"iteration":389,"passed_time":22.53402327,"remaining_time":35.24552357},
{"learn":[24005.06052],"iteration":390,"passed_time":22.5894195,"remaining_time":35.18403191},
{"learn":[23998.68892],"iteration":391,"passed_time":22.64915551,"remaining_time":35.12930242},
{"learn":[23996.89705],"iteration":392,"passed_time":22.70092992,"remaining_time":35.06225053},
{"learn":[23993.07153],"iteration":393,"passed_time":22.75532858,"remaining_time":34.99931249},
{"learn":[23987.68669],"iteration":394,"passed_time":22.81039673,"remaining_time":34.93744309},
{"learn":[23985.43244],"iteration":395,"passed_time":22.86190257,"remaining_time":34.87017462},
{"learn":[23979.17337],"iteration":396,"passed_time":22.91331378,"remaining_time":34.80284184},
{"learn":[23974.67612],"iteration":397,"passed_time":22.97910975,"remaining_time":34.75734691},
{"learn":[23969.33259],"iteration":398,"passed_time":23.05824202,"remaining_time":34.73183822},
{"learn":[23964.89186],"iteration":399,"passed_time":23.12438849,"remaining_time":34.68658274},
{"learn":[23958.54693],"iteration":400,"passed_time":23.19429518,"remaining_time":34.64683994},
{"learn":[23955.01008],"iteration":401,"passed_time":23.25966228,"remaining_time":34.60019414},
{"learn":[23951.53871],"iteration":402,"passed_time":23.32397922,"remaining_time":34.55189973},
{"learn":[23946.13338],"iteration":403,"passed_time":23.39653806,"remaining_time":34.51568486},
{"learn":[23940.1427],"iteration":404,"passed_time":23.47713108,"remaining_time":34.4910938},
{"learn":[23938.17969],"iteration":405,"passed_time":23.54313056,"remaining_time":34.44487575},
{"learn":[23935.74398],"iteration":406,"passed_time":23.59641784,"remaining_time":34.38003877},
{"learn":[23930.81757],"iteration":407,"passed_time":23.66236055,"remaining_time":34.33362119},
{"learn":[23926.77572],"iteration":408,"passed_time":23.71942105,"remaining_time":34.27427345},
{"learn":[23925.04233],"iteration":409,"passed_time":23.77174167,"remaining_time":34.20811606},
{"learn":[23920.74629],"iteration":410,"passed_time":23.83349174,"remaining_time":34.15553925},
{"learn":[23915.28117],"iteration":411,"passed_time":23.89069281,"remaining_time":34.09642566},
{"learn":[23912.58009],"iteration":412,"passed_time":23.95243917,"remaining_time":34.04378158},
{"learn":[23909.60813],"iteration":413,"passed_time":24.00945505,"remaining_time":33.98439772},
{"learn":[23904.20248],"iteration":414,"passed_time":24.07144331,"remaining_time":33.93203454},
{"learn":[23900.91794],"iteration":415,"passed_time":24.13062633,"remaining_time":33.87568696},
{"learn":[23892.72664],"iteration":416,"passed_time":24.190815,"remaining_time":33.82073177},
{"learn":[23889.67476],"iteration":417,"passed_time":24.25151417,"remaining_time":33.76646231},
{"learn":[23884.57086],"iteration":418,"passed_time":24.30811801,"remaining_time":33.70648345},
{"learn":[23882.15723],"iteration":419,"passed_time":24.37270067,"remaining_time":33.65753902},
{"learn":[23880.07487],"iteration":420,"passed_time":24.44571366,"remaining_time":33.62011451},
{"learn":[23876.40149],"iteration":421,"passed_time":24.51595057,"remaining_time":33.57871902},
{"learn":[23868.67814],"iteration":422,"passed_time":24.5920467,"remaining_time":33.54517954},
{"learn":[23864.33393],"iteration":423,"passed_time":24.66131624,"remaining_time":33.50216545},
{"learn":[23860.86226],"iteration":424,"passed_time":24.71526214,"remaining_time":33.43829583},
{"learn":[23854.26379],"iteration":425,"passed_time":24.77954588,"remaining_time":33.38840219},
{"learn":[23850.97007],"iteration":426,"passed_time":24.83327632,"remaining_time":33.32427946},
{"learn":[23847.69201],"iteration":427,"passed_time":24.89130355,"remaining_time":33.26594773},
{"learn":[23844.81038],"iteration":428,"passed_time":24.95854137,"remaining_time":33.21987674},
{"learn":[23841.11955],"iteration":429,"passed_time":25.03102323,"remaining_time":33.1806587},
{"learn":[23838.82106],"iteration":430,"passed_time":25.10041912,"remaining_time":33.13721224},
{"learn":[23834.06314],"iteration":431,"passed_time":25.16733853,"remaining_time":33.09038954},
{"learn":[23829.12187],"iteration":432,"passed_time":25.2327588,"remaining_time":33.04151095},
{"learn":[23825.97623],"iteration":433,"passed_time":25.30122188,"remaining_time":32.99652438},
{"learn":[23822.60016],"iteration":434,"passed_time":25.36268087,"remaining_time":32.94233262},
{"learn":[23818.65257],"iteration":435,"passed_time":25.42394444,"remaining_time":32.88785473},
{"learn":[23811.80361],"iteration":436,"passed_time":25.49168514,"remaining_time":32.84169046},
{"learn":[23807.93283],"iteration":437,"passed_time":25.5551169,"remaining_time":32.78989886},
{"learn":[23803.34444],"iteration":438,"passed_time":25.62214608,"remaining_time":32.74265137},
{"learn":[23799.5855],"iteration":439,"passed_time":25.68772947,"remaining_time":32.69347387},
{"learn":[23796.3081],"iteration":440,"passed_time":25.75503763,"remaining_time":32.64640824},
{"learn":[23791.20072],"iteration":441,"passed_time":25.82194686,"remaining_time":32.5987474},
{"learn":[23788.2119],"iteration":442,"passed_time":25.883284,"remaining_time":32.54399365},
{"learn":[23785.11948],"iteration":443,"passed_time":25.94834108,"remaining_time":32.49386856},
{"learn":[23781.10969],"iteration":444,"passed_time":26.01276247,"remaining_time":32.44288353},
{"learn":[23773.39102],"iteration":445,"passed_time":26.08071579,"remaining_time":32.39622545},
{"learn":[23769.40623],"iteration":446,"passed_time":26.14711542,"remaining_time":32.34754995},
{"learn":[23763.38884],"iteration":447,"passed_time":26.21425867,"remaining_time":32.29971157},
{"learn":[23758.76608],"iteration":448,"passed_time":26.282185,"remaining_time":32.25274819},
{"learn":[23754.51235],"iteration":449,"passed_time":26.34323126,"remaining_time":32.19728265},
{"learn":[23749.853],"iteration":450,"passed_time":26.40399706,"remaining_time":32.14145097},
{"learn":[23746.29551],"iteration":451,"passed_time":26.46888449,"remaining_time":32.09059447},
{"learn":[23740.74773],"iteration":452,"passed_time":26.53258591,"remaining_time":32.03824391},
{"learn":[23734.42957],"iteration":453,"passed_time":26.5984053,"remaining_time":31.98839052},
{"learn":[23731.11056],"iteration":454,"passed_time":26.65920869,"remaining_time":31.93245877},
{"learn":[23726.18238],"iteration":455,"passed_time":26.72462719,"remaining_time":31.88201139},
{"learn":[23722.14914],"iteration":456,"passed_time":26.78573893,"remaining_time":31.82638127},
{"learn":[23719.41225],"iteration":457,"passed_time":26.83910141,"remaining_time":31.7615567},
{"learn":[23714.15149],"iteration":458,"passed_time":26.89718268,"remaining_time":31.70234385},
{"learn":[23710.24098],"iteration":459,"passed_time":26.9561017,"remaining_time":31.64411939},
{"learn":[23708.3278],"iteration":460,"passed_time":27.01283935,"remaining_time":31.58334145},
{"learn":[23705.0628],"iteration":461,"passed_time":27.06548208,"remaining_time":31.51781247},
{"learn":[23698.61009],"iteration":462,"passed_time":27.12636055,"remaining_time":31.46189117},
{"learn":[23693.09322],"iteration":463,"passed_time":27.19121664,"remaining_time":31.41054336},
{"learn":[23689.74642],"iteration":464,"passed_time":27.24589782,"remaining_time":31.34743082},
{"learn":[23687.42495],"iteration":465,"passed_time":27.30744803,"remaining_time":31.29222585},
{"learn":[23682.50319],"iteration":466,"passed_time":27.36525633,"remaining_time":31.23272297},
{"learn":[23679.81557],"iteration":467,"passed_time":27.42795161,"remaining_time":31.1787826},
{"learn":[23671.55095],"iteration":468,"passed_time":27.49218993,"remaining_time":31.12655192},
{"learn":[23666.09128],"iteration":469,"passed_time":27.55116158,"remaining_time":31.06833114},
{"learn":[23661.84036],"iteration":470,"passed_time":27.61205206,"remaining_time":31.01226229},
{"learn":[23659.17165],"iteration":471,"passed_time":27.6704425,"remaining_time":30.95337636},
{"learn":[23654.72062],"iteration":472,"passed_time":27.73231732,"remaining_time":30.89837469},
{"learn":[23652.55687],"iteration":473,"passed_time":27.79179697,"remaining_time":30.84068609},
{"learn":[23651.1696],"iteration":474,"passed_time":27.84274332,"remaining_time":30.7735584},
{"learn":[23647.31457],"iteration":475,"passed_time":27.90138006,"remaining_time":30.71496461},
{"learn":[23643.00585],"iteration":476,"passed_time":27.96151402,"remaining_time":30.65801223},
{"learn":[23642.12144],"iteration":477,"passed_time":28.01264615,"remaining_time":30.59121608},
{"learn":[23637.48672],"iteration":478,"passed_time":28.07213033,"remaining_time":30.53356973},
{"learn":[23631.4096],"iteration":479,"passed_time":28.1275533,"remaining_time":30.47151608},
{"learn":[23628.59418],"iteration":480,"passed_time":28.18375588,"remaining_time":30.41033118},
{"learn":[23624.27135],"iteration":481,"passed_time":28.24697972,"remaining_time":30.35671265},
{"learn":[23621.1837],"iteration":482,"passed_time":28.29967203,"remaining_time":30.29178144},
{"learn":[23617.45881],"iteration":483,"passed_time":28.35675785,"remaining_time":30.23158481},
{"learn":[23609.86707],"iteration":484,"passed_time":28.41231047,"remaining_time":30.16977297},
{"learn":[23603.2065],"iteration":485,"passed_time":28.46825249,"remaining_time":30.10839872},
{"learn":[23597.41348],"iteration":486,"passed_time":28.52192981,"remaining_time":30.04466118},
{"learn":[23591.71205],"iteration":487,"passed_time":28.57832741,"remaining_time":29.98381892},
{"learn":[23587.37131],"iteration":488,"passed_time":28.6407871,"remaining_time":29.92932967},
{"learn":[23585.08136],"iteration":489,"passed_time":28.7047129,"remaining_time":29.87633384},
{"learn":[23579.93421],"iteration":490,"passed_time":28.7708909,"remaining_time":29.82562824},
{"learn":[23574.70797],"iteration":491,"passed_time":28.84092552,"remaining_time":29.77884179},
{"learn":[23571.11144],"iteration":492,"passed_time":28.8997561,"remaining_time":29.72043883},
{"learn":[23568.62647],"iteration":493,"passed_time":28.95725595,"remaining_time":29.66067108},
{"learn":[23565.02928],"iteration":494,"passed_time":29.01608864,"remaining_time":29.60227225},
{"learn":[23559.35982],"iteration":495,"passed_time":29.08299251,"remaining_time":29.55207303},
{"learn":[23556.73629],"iteration":496,"passed_time":29.14148407,"remaining_time":29.49329273},
{"learn":[23552.66944],"iteration":497,"passed_time":29.19448594,"remaining_time":29.4289798},
{"learn":[23547.58267],"iteration":498,"passed_time":29.25001328,"remaining_time":29.3672478},
{"learn":[23541.08565],"iteration":499,"passed_time":29.31037618,"remaining_time":29.31037618},
{"learn":[23537.8307],"iteration":500,"passed_time":29.37451875,"remaining_time":29.2572552},
{"learn":[23535.02307],"iteration":501,"passed_time":29.4334058,"remaining_time":29.19887667},
{"learn":[23530.09786],"iteration":502,"passed_time":29.49476706,"remaining_time":29.14294081},
{"learn":[23526.00856],"iteration":503,"passed_time":29.55458882,"remaining_time":29.08546836},
{"learn":[23524.28536],"iteration":504,"passed_time":29.6160489,"remaining_time":29.02959249},
{"learn":[23521.18761],"iteration":505,"passed_time":29.66949711,"remaining_time":28.96587267},
{"learn":[23518.03505],"iteration":506,"passed_time":29.72436864,"remaining_time":28.9035774},
{"learn":[23514.18941],"iteration":507,"passed_time":29.78716939,"remaining_time":28.84899083},
{"learn":[23512.63635],"iteration":508,"passed_time":29.84074089,"remaining_time":28.78546911},
{"learn":[23510.81333],"iteration":509,"passed_time":29.89568103,"remaining_time":28.72330138},
{"learn":[23508.28433],"iteration":510,"passed_time":29.94984206,"remaining_time":28.66041638},
{"learn":[23502.18136],"iteration":511,"passed_time":30.01038089,"remaining_time":28.60364429},
{"learn":[23499.77945],"iteration":512,"passed_time":30.074238,"remaining_time":28.55000761},
{"learn":[23495.71508],"iteration":513,"passed_time":30.13558565,"remaining_time":28.49395841},
{"learn":[23493.84835],"iteration":514,"passed_time":30.19066348,"remaining_time":28.43198405},
{"learn":[23490.29946],"iteration":515,"passed_time":30.26061135,"remaining_time":28.38398429},
{"learn":[23487.02793],"iteration":516,"passed_time":30.32141528,"remaining_time":28.32735702},
{"learn":[23482.86647],"iteration":517,"passed_time":30.37653719,"remaining_time":28.2654265},
{"learn":[23480.17561],"iteration":518,"passed_time":30.42729671,"remaining_time":28.19947922},
{"learn":[23476.7186],"iteration":519,"passed_time":30.48668114,"remaining_time":28.14155182},
{"learn":[23471.88614],"iteration":520,"passed_time":30.53886155,"remaining_time":28.07699555},
{"learn":[23468.82024],"iteration":521,"passed_time":30.5986513,"remaining_time":28.01945464},
{"learn":[23465.77509],"iteration":522,"passed_time":30.65077564,"remaining_time":27.95491392},
{"learn":[23462.08211],"iteration":523,"passed_time":30.7075803,"remaining_time":27.89467218},
{"learn":[23459.04837],"iteration":524,"passed_time":30.76562884,"remaining_time":27.83556895},
{"learn":[23457.31044],"iteration":525,"passed_time":30.82240316,"remaining_time":27.77532148},
{"learn":[23455.25342],"iteration":526,"passed_time":30.87539857,"remaining_time":27.71169549},
{"learn":[23449.21931],"iteration":527,"passed_time":30.93524547,"remaining_time":27.65423459},
{"learn":[23445.6916],"iteration":528,"passed_time":30.99790648,"remaining_time":27.59927024},
{"learn":[23443.8614],"iteration":529,"passed_time":31.05244749,"remaining_time":27.53707608},
{"learn":[23438.95957],"iteration":530,"passed_time":31.11696963,"remaining_time":27.48372647},
{"learn":[23435.7216],"iteration":531,"passed_time":31.19194397,"remaining_time":27.43952966},
{"learn":[23432.75329],"iteration":532,"passed_time":31.25159743,"remaining_time":27.38179362},
{"learn":[23429.63397],"iteration":533,"passed_time":31.31218264,"remaining_time":27.3248635},
{"learn":[23426.13686],"iteration":534,"passed_time":31.37395888,"remaining_time":27.26895492},
{"learn":[23424.59733],"iteration":535,"passed_time":31.4283159,"remaining_time":27.20660182},
{"learn":[23421.73546],"iteration":536,"passed_time":31.48929189,"remaining_time":27.14998538},
{"learn":[23417.76545],"iteration":537,"passed_time":31.55084873,"remaining_time":27.09385151},
{"learn":[23413.23026],"iteration":538,"passed_time":31.61157132,"remaining_time":27.036984},
{"learn":[23411.43041],"iteration":539,"passed_time":31.67135849,"remaining_time":26.97930538},
{"learn":[23406.82919],"iteration":540,"passed_time":31.73831521,"remaining_time":26.92770182},
{"learn":[23403.7274],"iteration":541,"passed_time":31.79048834,"remaining_time":26.86354919},
{"learn":[23400.42635],"iteration":542,"passed_time":31.84361234,"remaining_time":26.80024096},
{"learn":[23395.74977],"iteration":543,"passed_time":31.90279021,"remaining_time":26.74204474},
{"learn":[23394.63564],"iteration":544,"passed_time":31.9655599,"remaining_time":26.68684358},
{"learn":[23392.96736],"iteration":545,"passed_time":32.01992958,"remaining_time":26.62463009},
{"learn":[23391.0089],"iteration":546,"passed_time":32.07414655,"remaining_time":26.56231881},
{"learn":[23387.53176],"iteration":547,"passed_time":32.13220448,"remaining_time":26.50320516},
{"learn":[23384.83825],"iteration":548,"passed_time":32.19550661,"remaining_time":26.44840343},
{"learn":[23379.78056],"iteration":549,"passed_time":32.25408321,"remaining_time":26.38970444},
{"learn":[23374.95817],"iteration":550,"passed_time":32.31602315,"remaining_time":26.33374664},
{"learn":[23368.29221],"iteration":551,"passed_time":32.38510229,"remaining_time":26.28356128},
{"learn":[23366.0804],"iteration":552,"passed_time":32.44698854,"remaining_time":26.22749345},
{"learn":[23363.26154],"iteration":553,"passed_time":32.50569646,"remaining_time":26.16884589},
{"learn":[23360.51836],"iteration":554,"passed_time":32.56706346,"remaining_time":26.11233016},
{"learn":[23356.02932],"iteration":555,"passed_time":32.6324622,"remaining_time":26.05901658},
{"learn":[23351.84599],"iteration":556,"passed_time":32.69619916,"remaining_time":26.00433793},
{"learn":[23349.55386],"iteration":557,"passed_time":32.76077222,"remaining_time":25.95028911},
{"learn":[23346.5998],"iteration":558,"passed_time":32.81948665,"remaining_time":25.8915807},
{"learn":[23343.22603],"iteration":559,"passed_time":32.88528673,"remaining_time":25.83843957},
{"learn":[23340.82258],"iteration":560,"passed_time":32.93732038,"remaining_time":25.77448065},
{"learn":[23339.22033],"iteration":561,"passed_time":32.9900841,"remaining_time":25.71113316},
{"learn":[23335.9854],"iteration":562,"passed_time":33.04854558,"remaining_time":25.65224586},
{"learn":[23334.36896],"iteration":563,"passed_time":33.11135177,"remaining_time":25.59671875},
{"learn":[23331.99557],"iteration":564,"passed_time":33.17480164,"remaining_time":25.54166144},
{"learn":[23328.28751],"iteration":565,"passed_time":33.22669235,"remaining_time":25.47771109},
{"learn":[23325.04481],"iteration":566,"passed_time":33.28719802,"remaining_time":25.42038226},
{"learn":[23322.72492],"iteration":567,"passed_time":33.35199209,"remaining_time":25.36630384},
{"learn":[23320.27654],"iteration":568,"passed_time":33.41349762,"remaining_time":25.30969679},
{"learn":[23315.39475],"iteration":569,"passed_time":33.47242846,"remaining_time":25.25113024},
{"learn":[23311.74708],"iteration":570,"passed_time":33.52819219,"remaining_time":25.19018292},
{"learn":[23309.73667],"iteration":571,"passed_time":33.59287332,"remaining_time":25.13592619},
{"learn":[23307.3715],"iteration":572,"passed_time":33.64661258,"remaining_time":25.07347918},
{"learn":[23305.18071],"iteration":573,"passed_time":33.69979821,"remaining_time":25.01065163},
{"learn":[23302.38678],"iteration":574,"passed_time":33.7558018,"remaining_time":24.94994046},
{"learn":[23298.80774],"iteration":575,"passed_time":33.81581844,"remaining_time":24.89219969},
{"learn":[23295.71457],"iteration":576,"passed_time":33.87407926,"remaining_time":24.83316382},
{"learn":[23292.45273],"iteration":577,"passed_time":33.92906307,"remaining_time":24.77173809},
{"learn":[23289.84917],"iteration":578,"passed_time":33.98272232,"remaining_time":24.7093715},
{"learn":[23287.84918],"iteration":579,"passed_time":34.04144154,"remaining_time":24.65069905},
{"learn":[23285.14525],"iteration":580,"passed_time":34.0979262,"remaining_time":24.59041493},
{"learn":[23281.81636],"iteration":581,"passed_time":34.15501771,"remaining_time":24.53057973},
{"learn":[23279.46075],"iteration":582,"passed_time":34.21755126,"remaining_time":24.47464644},
{"learn":[23276.92953],"iteration":583,"passed_time":34.28056223,"remaining_time":24.41903063},
{"learn":[23274.87868],"iteration":584,"passed_time":34.33408846,"remaining_time":24.35666104},
{"learn":[23272.38779],"iteration":585,"passed_time":34.38920932,"remaining_time":24.29544822},
{"learn":[23268.56951],"iteration":586,"passed_time":34.44909135,"remaining_time":24.23760601},
{"learn":[23267.93424],"iteration":587,"passed_time":34.50344788,"remaining_time":24.17588525},
{"learn":[23264.88352],"iteration":588,"passed_time":34.56434904,"remaining_time":24.11875629},
{"learn":[23263.59939],"iteration":589,"passed_time":34.61717459,"remaining_time":24.05600268},
{"learn":[23262.23027],"iteration":590,"passed_time":34.67366526,"remaining_time":23.99581911},
{"learn":[23258.72347],"iteration":591,"passed_time":34.73138211,"remaining_time":23.93649307},
{"learn":[23255.64694],"iteration":592,"passed_time":34.78988233,"remaining_time":23.87771013},
{"learn":[23251.93682],"iteration":593,"passed_time":34.84502646,"remaining_time":23.81663425},
{"learn":[23249.78083],"iteration":594,"passed_time":34.90485876,"remaining_time":23.75876941},
{"learn":[23243.41189],"iteration":595,"passed_time":34.9662436,"remaining_time":23.70195036},
{"learn":[23239.57626],"iteration":596,"passed_time":35.02630075,"remaining_time":23.64421977},
{"learn":[23237.57832],"iteration":597,"passed_time":35.08769896,"remaining_time":23.58738291},
{"learn":[23234.39924],"iteration":598,"passed_time":35.1500748,"remaining_time":23.5311853},
{"learn":[23232.1248],"iteration":599,"passed_time":35.21543252,"remaining_time":23.47695501},
{"learn":[23230.3453],"iteration":600,"passed_time":35.27205172,"remaining_time":23.41688625},
{"learn":[23228.41861],"iteration":601,"passed_time":35.32871203,"remaining_time":23.35685613},
{"learn":[23225.7875],"iteration":602,"passed_time":35.38256131,"remaining_time":23.29498647},
{"learn":[23221.7107],"iteration":603,"passed_time":35.4407297,"remaining_time":23.2359751},
{"learn":[23219.50217],"iteration":604,"passed_time":35.50792521,"remaining_time":23.18286026},
{"learn":[23217.06466],"iteration":605,"passed_time":35.56767184,"remaining_time":23.12485595},
{"learn":[23213.38698],"iteration":606,"passed_time":35.63003862,"remaining_time":23.0685423},
{"learn":[23208.71749],"iteration":607,"passed_time":35.70037266,"remaining_time":23.01734553},
{"learn":[23204.34796],"iteration":608,"passed_time":35.76569614,"remaining_time":22.96286895},
{"learn":[23202.02161],"iteration":609,"passed_time":35.82610716,"remaining_time":22.90521606},
{"learn":[23199.38157],"iteration":610,"passed_time":35.88768272,"remaining_time":22.84829555},
{"learn":[23197.41516],"iteration":611,"passed_time":35.95042885,"remaining_time":22.79210195},
{"learn":[23195.22558],"iteration":612,"passed_time":36.00913558,"remaining_time":22.73333682},
{"learn":[23194.02858],"iteration":613,"passed_time":36.07528912,"remaining_time":22.67925342},
{"learn":[23191.20283],"iteration":614,"passed_time":36.13198515,"remaining_time":22.61921022},
{"learn":[23189.87083],"iteration":615,"passed_time":36.19268722,"remaining_time":22.56167515},
{"learn":[23183.22419],"iteration":616,"passed_time":36.25372785,"remaining_time":22.50433998},
{"learn":[23179.49806],"iteration":617,"passed_time":36.3094564,"remaining_time":22.44370929},
{"learn":[23176.16934],"iteration":618,"passed_time":36.37191455,"remaining_time":22.38723658},
{"learn":[23173.37759],"iteration":619,"passed_time":36.45250755,"remaining_time":22.34185947},
{"learn":[23169.22726],"iteration":620,"passed_time":36.53700192,"remaining_time":22.29874997},
{"learn":[23166.94076],"iteration":621,"passed_time":36.61237913,"remaining_time":22.24996674},
{"learn":[23165.75803],"iteration":622,"passed_time":36.67844308,"remaining_time":22.19546235},
{"learn":[23163.64984],"iteration":623,"passed_time":36.74382216,"remaining_time":22.14050822},
{"learn":[23161.08598],"iteration":624,"passed_time":36.8108359,"remaining_time":22.08650154},
{"learn":[23157.10304],"iteration":625,"passed_time":36.8771055,"remaining_time":22.03200872},
{"learn":[23152.89372],"iteration":626,"passed_time":36.94609054,"remaining_time":21.97909373},
{"learn":[23150.42641],"iteration":627,"passed_time":37.01538739,"remaining_time":21.92631228},
{"learn":[23148.13321],"iteration":628,"passed_time":37.08431751,"remaining_time":21.873262},
{"learn":[23146.5405],"iteration":629,"passed_time":37.15910146,"remaining_time":21.82359927},
{"learn":[23141.2349],"iteration":630,"passed_time":37.23365043,"remaining_time":21.77371951},
{"learn":[23138.99963],"iteration":631,"passed_time":37.29982971,"remaining_time":21.71888818},
{"learn":[23137.03971],"iteration":632,"passed_time":37.36543902,"remaining_time":21.66369055},
{"learn":[23135.87446],"iteration":633,"passed_time":37.43023079,"remaining_time":21.60798812},
{"learn":[23132.23841],"iteration":634,"passed_time":37.500766,"remaining_time":21.55555841},
{"learn":[23129.91112],"iteration":635,"passed_time":37.55532937,"remaining_time":21.49393064},
{"learn":[23126.50408],"iteration":636,"passed_time":37.62814694,"remaining_time":21.44272738},
{"learn":[23124.55176],"iteration":637,"passed_time":37.69236778,"remaining_time":21.38657858},
{"learn":[23122.54966],"iteration":638,"passed_time":37.74755213,"remaining_time":21.3252994},
{"learn":[23120.42709],"iteration":639,"passed_time":37.80647124,"remaining_time":21.26614007},
{"learn":[23116.4253],"iteration":640,"passed_time":37.86576238,"remaining_time":21.20718985},
{"learn":[23111.69204],"iteration":641,"passed_time":37.92240483,"remaining_time":21.14676157},
{"learn":[23108.08453],"iteration":642,"passed_time":37.97983161,"remaining_time":21.08678054},
{"learn":[23105.88969],"iteration":643,"passed_time":38.04068258,"remaining_time":21.02870031},
{"learn":[23102.70782],"iteration":644,"passed_time":38.11875401,"remaining_time":20.98008941},
{"learn":[23100.39647],"iteration":645,"passed_time":38.18127588,"remaining_time":20.92286635},
{"learn":[23098.11711],"iteration":646,"passed_time":38.24338168,"remaining_time":20.86539989},
{"learn":[23094.34311],"iteration":647,"passed_time":38.30308675,"remaining_time":20.80661503},
{"learn":[23091.45786],"iteration":648,"passed_time":38.36651244,"remaining_time":20.74983955},
{"learn":[23089.59004],"iteration":649,"passed_time":38.42680658,"remaining_time":20.69135739},
{"learn":[23087.72507],"iteration":650,"passed_time":38.48297963,"remaining_time":20.63066036},
{"learn":[23086.00886],"iteration":651,"passed_time":38.53762698,"remaining_time":20.56916287},
{"learn":[23083.89518],"iteration":652,"passed_time":38.59758846,"remaining_time":20.51051025},
{"learn":[23078.74131],"iteration":653,"passed_time":38.65618608,"remaining_time":20.45113209},
{"learn":[23075.25388],"iteration":654,"passed_time":38.7140146,"remaining_time":20.3913512},
{"learn":[23072.51141],"iteration":655,"passed_time":38.77399786,"remaining_time":20.3327062},
{"learn":[23069.92223],"iteration":656,"passed_time":38.83344316,"remaining_time":20.27377626},
{"learn":[23067.62446],"iteration":657,"passed_time":38.88999679,"remaining_time":20.2133418},
{"learn":[23065.63836],"iteration":658,"passed_time":38.94632336,"remaining_time":20.15280162},
{"learn":[23061.75145],"iteration":659,"passed_time":39.00402699,"remaining_time":20.0929836},
{"learn":[23059.9848],"iteration":660,"passed_time":39.06189006,"remaining_time":20.03325375},
{"learn":[23058.32752],"iteration":661,"passed_time":39.12202127,"remaining_time":19.9746876},
{"learn":[23055.32462],"iteration":662,"passed_time":39.175597,"remaining_time":19.9127846},
{"learn":[23053.86486],"iteration":663,"passed_time":39.23250002,"remaining_time":19.85259037},
{"learn":[23047.46093],"iteration":664,"passed_time":39.29500169,"remaining_time":19.79522641},
{"learn":[23045.35578],"iteration":665,"passed_time":39.34914846,"remaining_time":19.73365703},
{"learn":[23042.09177],"iteration":666,"passed_time":39.40861429,"remaining_time":19.67476545},
{"learn":[23041.00942],"iteration":667,"passed_time":39.46229628,"remaining_time":19.61299755},
{"learn":[23037.9866],"iteration":668,"passed_time":39.5222673,"remaining_time":19.55436544},
{"learn":[23035.5908],"iteration":669,"passed_time":39.57857966,"remaining_time":19.49392729},
{"learn":[23033.25652],"iteration":670,"passed_time":39.63138468,"remaining_time":19.43178176},
{"learn":[23029.80066],"iteration":671,"passed_time":39.68779113,"remaining_time":19.37142186},
{"learn":[23026.40992],"iteration":672,"passed_time":39.74629049,"remaining_time":19.31209062},
{"learn":[23024.13226],"iteration":673,"passed_time":39.80406014,"remaining_time":19.25240891},
{"learn":[23020.79151],"iteration":674,"passed_time":39.86343147,"remaining_time":19.19350404},
{"learn":[23016.35785],"iteration":675,"passed_time":39.91930779,"remaining_time":19.13292267},
{"learn":[23012.90789],"iteration":676,"passed_time":39.97705243,"remaining_time":19.07324658},
{"learn":[23009.40437],"iteration":677,"passed_time":40.03563497,"remaining_time":19.01397413},
{"learn":[23006.65188],"iteration":678,"passed_time":40.09444316,"remaining_time":18.95481039},
{"learn":[23004.05553],"iteration":679,"passed_time":40.14964924,"remaining_time":18.89395259},
{"learn":[23001.48107],"iteration":680,"passed_time":40.21542024,"remaining_time":18.83806029},
{"learn":[22999.25287],"iteration":681,"passed_time":40.27445573,"remaining_time":18.77899842},
{"learn":[22996.17147],"iteration":682,"passed_time":40.33703117,"remaining_time":18.72157962},
{"learn":[22991.35488],"iteration":683,"passed_time":40.39207782,"remaining_time":18.66066753},
{"learn":[22989.61584],"iteration":684,"passed_time":40.44946027,"remaining_time":18.6008467},
{"learn":[22985.87423],"iteration":685,"passed_time":40.5133852,"remaining_time":18.54402763},
{"learn":[22984.15973],"iteration":686,"passed_time":40.56665913,"remaining_time":18.48233524},
{"learn":[22981.74891],"iteration":687,"passed_time":40.62971076,"remaining_time":18.42510139},
{"learn":[22978.67543],"iteration":688,"passed_time":40.70585429,"remaining_time":18.37376006},
{"learn":[22975.99803],"iteration":689,"passed_time":40.76873824,"remaining_time":18.31638965},
{"learn":[22973.42831],"iteration":690,"passed_time":40.82412559,"remaining_time":18.25565095},
{"learn":[22970.93841],"iteration":691,"passed_time":40.87879425,"remaining_time":18.19460785},
{"learn":[22969.20216],"iteration":692,"passed_time":40.93853951,"remaining_time":18.13583208},
{"learn":[22965.55716],"iteration":693,"passed_time":40.99777345,"remaining_time":18.07682806},
{"learn":[22961.10747],"iteration":694,"passed_time":41.0679564,"remaining_time":18.02262835},
{"learn":[22959.18613],"iteration":695,"passed_time":41.122358,"remaining_time":17.9614897},
{"learn":[22957.13836],"iteration":696,"passed_time":41.18708677,"remaining_time":17.90485982},
{"learn":[22954.53697],"iteration":697,"passed_time":41.24045688,"remaining_time":17.84329223},
{"learn":[22952.15372],"iteration":698,"passed_time":41.29767982,"remaining_time":17.78340719},
{"learn":[22950.49575],"iteration":699,"passed_time":41.35069256,"remaining_time":17.72172538},
{"learn":[22948.92456],"iteration":700,"passed_time":41.40435183,"remaining_time":17.66034408},
{"learn":[22944.58808],"iteration":701,"passed_time":41.46097054,"remaining_time":17.60024106},
{"learn":[22942.68345],"iteration":702,"passed_time":41.5128302,"remaining_time":17.53813737},
{"learn":[22940.40744],"iteration":703,"passed_time":41.57102204,"remaining_time":17.47872518},
{"learn":[22935.98604],"iteration":704,"passed_time":41.62576907,"remaining_time":17.417875},
{"learn":[22932.86078],"iteration":705,"passed_time":41.68320218,"remaining_time":17.35816068},
{"learn":[22928.98159],"iteration":706,"passed_time":41.73804232,"remaining_time":17.29737822},
{"learn":[22927.1273],"iteration":707,"passed_time":41.7954478,"remaining_time":17.23767056},
{"learn":[22925.19055],"iteration":708,"passed_time":41.85953482,"remaining_time":17.18071175},
{"learn":[22923.22545],"iteration":709,"passed_time":41.91649964,"remaining_time":17.12082379},
{"learn":[22921.89808],"iteration":710,"passed_time":41.97005784,"remaining_time":17.05955938},
{"learn":[22919.55201],"iteration":711,"passed_time":42.02333595,"remaining_time":16.9982033},
{"learn":[22915.48152],"iteration":712,"passed_time":42.0784474,"remaining_time":16.93760786},
{"learn":[22912.81048],"iteration":713,"passed_time":42.13528525,"remaining_time":16.8777193},
{"learn":[22910.75105],"iteration":714,"passed_time":42.18975375,"remaining_time":16.81689485},
{"learn":[22907.12365],"iteration":715,"passed_time":42.24463796,"remaining_time":16.75625305},
{"learn":[22906.12026],"iteration":716,"passed_time":42.29989614,"remaining_time":16.69577491},
{"learn":[22904.66898],"iteration":717,"passed_time":42.35500294,"remaining_time":16.63525185},
{"learn":[22903.55649],"iteration":718,"passed_time":42.40989549,"remaining_time":16.57466013},
{"learn":[22901.9376],"iteration":719,"passed_time":42.46210876,"remaining_time":16.5130423},
{"learn":[22899.26918],"iteration":720,"passed_time":42.51944503,"remaining_time":16.45343296},
{"learn":[22897.12175],"iteration":721,"passed_time":42.57647504,"remaining_time":16.393712},
{"learn":[22895.32995],"iteration":722,"passed_time":42.62658183,"remaining_time":16.33134601},
{"learn":[22892.84624],"iteration":723,"passed_time":42.68135067,"remaining_time":16.27079114},
{"learn":[22891.36988],"iteration":724,"passed_time":42.73560867,"remaining_time":16.21005846},
{"learn":[22887.62866],"iteration":725,"passed_time":42.79730026,"remaining_time":16.15214914},
{"learn":[22883.2349],"iteration":726,"passed_time":42.85408673,"remaining_time":16.09238745},
{"learn":[22878.11578],"iteration":727,"passed_time":42.90749721,"remaining_time":16.03137258},
{"learn":[22876.31956],"iteration":728,"passed_time":42.96335159,"remaining_time":15.97128708},
{"learn":[22873.24579],"iteration":729,"passed_time":43.01971989,"remaining_time":15.91140325},
{"learn":[22868.7023],"iteration":730,"passed_time":43.07691495,"remaining_time":15.85183327},
{"learn":[22867.1714],"iteration":731,"passed_time":43.12987181,"remaining_time":15.79071809},
{"learn":[22864.21516],"iteration":732,"passed_time":43.19032083,"remaining_time":15.73235424},
{"learn":[22862.17008],"iteration":733,"passed_time":43.2487422,"remaining_time":15.6732499},
{"learn":[22860.61072],"iteration":734,"passed_time":43.30194168,"remaining_time":15.61226469},
{"learn":[22858.61004],"iteration":735,"passed_time":43.36311021,"remaining_time":15.5541591},
{"learn":[22855.96872],"iteration":736,"passed_time":43.4238067,"remaining_time":15.49587675},
{"learn":[22853.96925],"iteration":737,"passed_time":43.48174799,"remaining_time":15.43660972},
{"learn":[22852.04164],"iteration":738,"passed_time":43.5346973,"remaining_time":15.37558322},
{"learn":[22849.68078],"iteration":739,"passed_time":43.5935246,"remaining_time":15.31664378},
{"learn":[22847.10974],"iteration":740,"passed_time":43.65196082,"remaining_time":15.25756795},
{"learn":[22841.34814],"iteration":741,"passed_time":43.70827681,"remaining_time":15.19775663},
{"learn":[22837.71601],"iteration":742,"passed_time":43.76076357,"remaining_time":15.1366302},
{"learn":[22836.2625],"iteration":743,"passed_time":43.81094431,"remaining_time":15.07473352},
{"learn":[22835.25474],"iteration":744,"passed_time":43.86771071,"remaining_time":15.01512246},
{"learn":[22832.01867],"iteration":745,"passed_time":43.9248509,"remaining_time":14.95564629},
{"learn":[22830.36612],"iteration":746,"passed_time":43.97560132,"remaining_time":14.89401223},
{"learn":[22827.81074],"iteration":747,"passed_time":44.02693486,"remaining_time":14.83260372},
{"learn":[22825.36645],"iteration":748,"passed_time":44.08612737,"remaining_time":14.77385577},
{"learn":[22823.00603],"iteration":749,"passed_time":44.15035172,"remaining_time":14.71678391},
{"learn":[22821.04771],"iteration":750,"passed_time":44.2098513,"remaining_time":14.65812646},
{"learn":[22817.75367],"iteration":751,"passed_time":44.26237457,"remaining_time":14.59716608},
{"learn":[22814.47409],"iteration":752,"passed_time":44.3207316,"remaining_time":14.53814171},
{"learn":[22811.87761],"iteration":753,"passed_time":44.3751603,"remaining_time":14.47783745},
{"learn":[22807.5399],"iteration":754,"passed_time":44.43332816,"remaining_time":14.41876212},
{"learn":[22805.15238],"iteration":755,"passed_time":44.49313669,"remaining_time":14.36021872},
{"learn":[22802.89905],"iteration":756,"passed_time":44.55594578,"remaining_time":14.30263517},
{"learn":[22799.67445],"iteration":757,"passed_time":44.61307079,"remaining_time":14.24322313},
{"learn":[22797.35468],"iteration":758,"passed_time":44.66426885,"remaining_time":14.18193517},
{"learn":[22793.22624],"iteration":759,"passed_time":44.71880735,"remaining_time":14.12172864},
{"learn":[22790.60432],"iteration":760,"passed_time":44.7796819,"remaining_time":14.06352691},
{"learn":[22789.62383],"iteration":761,"passed_time":44.8306955,"remaining_time":14.00223823},
{"learn":[22788.01258],"iteration":762,"passed_time":44.88426025,"remaining_time":13.94176891},
{"learn":[22786.6576],"iteration":763,"passed_time":44.93915613,"remaining_time":13.88172886},
{"learn":[22783.50971],"iteration":764,"passed_time":44.99321936,"remaining_time":13.82144647},
{"learn":[22780.62036],"iteration":765,"passed_time":45.04859729,"remaining_time":13.76158194},
{"learn":[22778.48045],"iteration":766,"passed_time":45.10369444,"remaining_time":13.70164381},
{"learn":[22775.23861],"iteration":767,"passed_time":45.16158658,"remaining_time":13.64256261},
{"learn":[22772.9326],"iteration":768,"passed_time":45.21847208,"remaining_time":13.58318212},
{"learn":[22771.79693],"iteration":769,"passed_time":45.26870296,"remaining_time":13.52182037},
{"learn":[22769.0242],"iteration":770,"passed_time":45.33024923,"remaining_time":13.46384835},
{"learn":[22766.58968],"iteration":771,"passed_time":45.39495652,"remaining_time":13.40680063},
{"learn":[22764.06703],"iteration":772,"passed_time":45.46624096,"remaining_time":13.35166455},
{"learn":[22761.37719],"iteration":773,"passed_time":45.53606844,"remaining_time":13.29606133},
{"learn":[22759.05419],"iteration":774,"passed_time":45.60037279,"remaining_time":13.23881791},
{"learn":[22755.66532],"iteration":775,"passed_time":45.66471407,"remaining_time":13.18156695},
{"learn":[22753.51475],"iteration":776,"passed_time":45.73414252,"remaining_time":13.12575776},
{"learn":[22751.38219],"iteration":777,"passed_time":45.79504719,"remaining_time":13.06748133},
{"learn":[22748.39091],"iteration":778,"passed_time":45.86716396,"remaining_time":13.01237899},
{"learn":[22745.66027],"iteration":779,"passed_time":45.92646087,"remaining_time":12.95361717},
{"learn":[22740.78831],"iteration":780,"passed_time":46.00599329,"remaining_time":12.90052821},
{"learn":[22736.66988],"iteration":781,"passed_time":46.07512554,"remaining_time":12.84447234},
{"learn":[22735.53061],"iteration":782,"passed_time":46.1339856,"remaining_time":12.78553624},
{"learn":[22733.29967],"iteration":783,"passed_time":46.2016924,"remaining_time":12.7290377},
{"learn":[22729.90908],"iteration":784,"passed_time":46.27709736,"remaining_time":12.67461902},
{"learn":[22727.43968],"iteration":785,"passed_time":46.34462935,"remaining_time":12.61800341},
{"learn":[22725.70703],"iteration":786,"passed_time":46.40114014,"remaining_time":12.55837719},
{"learn":[22722.73767],"iteration":787,"passed_time":46.45935446,"remaining_time":12.49921719},
{"learn":[22718.90876],"iteration":788,"passed_time":46.52154568,"remaining_time":12.44112311},
{"learn":[22717.42166],"iteration":789,"passed_time":46.58202285,"remaining_time":12.38256304},
{"learn":[22714.18602],"iteration":790,"passed_time":46.64032212,"remaining_time":12.32342266},
{"learn":[22711.9267],"iteration":791,"passed_time":46.69749151,"remaining_time":12.26398767},
{"learn":[22709.83011],"iteration":792,"passed_time":46.76118474,"remaining_time":12.20626134},
{"learn":[22707.10647],"iteration":793,"passed_time":46.83311546,"remaining_time":12.15065716},
{"learn":[22704.88877],"iteration":794,"passed_time":46.89556735,"remaining_time":12.09256768},
{"learn":[22703.84112],"iteration":795,"passed_time":46.95267269,"remaining_time":12.03309702},
{"learn":[22701.60796],"iteration":796,"passed_time":47.01743835,"remaining_time":11.97558342},
{"learn":[22699.08096],"iteration":797,"passed_time":47.0804065,"remaining_time":11.91759663},
{"learn":[22697.43633],"iteration":798,"passed_time":47.14418599,"remaining_time":11.85980148},
{"learn":[22692.8653],"iteration":799,"passed_time":47.20040558,"remaining_time":11.8001014},
{"learn":[22691.59029],"iteration":800,"passed_time":47.26326618,"remaining_time":11.74205989},
{"learn":[22688.72931],"iteration":801,"passed_time":47.32406427,"remaining_time":11.68349717},
{"learn":[22686.01108],"iteration":802,"passed_time":47.38169913,"remaining_time":11.62415284},
{"learn":[22685.23283],"iteration":803,"passed_time":47.43508233,"remaining_time":11.56377629},
{"learn":[22683.09718],"iteration":804,"passed_time":47.49947958,"remaining_time":11.50608512},
{"learn":[22680.08813],"iteration":805,"passed_time":47.5621164,"remaining_time":11.44795358},
{"learn":[22679.25624],"iteration":806,"passed_time":47.62004893,"remaining_time":11.3886858},
{"learn":[22676.81393],"iteration":807,"passed_time":47.6801759,"remaining_time":11.32994279},
{"learn":[22673.71808],"iteration":808,"passed_time":47.74786181,"remaining_time":11.27298097},
{"learn":[22671.16625],"iteration":809,"passed_time":47.80931236,"remaining_time":11.21453006},
{"learn":[22669.88829],"iteration":810,"passed_time":47.86947856,"remaining_time":11.15577244},
{"learn":[22667.38437],"iteration":811,"passed_time":47.93130881,"remaining_time":11.09739662},
{"learn":[22666.34173],"iteration":812,"passed_time":47.99259185,"remaining_time":11.03888644},
{"learn":[22665.13837],"iteration":813,"passed_time":48.04832268,"remaining_time":10.97910076},
{"learn":[22662.58337],"iteration":814,"passed_time":48.10362438,"remaining_time":10.91922762},
{"learn":[22660.05423],"iteration":815,"passed_time":48.15956296,"remaining_time":10.85950929},
{"learn":[22657.51178],"iteration":816,"passed_time":48.22190226,"remaining_time":10.80123392},
{"learn":[22656.64395],"iteration":817,"passed_time":48.27797115,"remaining_time":10.74155348},
{"learn":[22655.12085],"iteration":818,"passed_time":48.32818541,"remaining_time":10.68058798},
{"learn":[22652.22654],"iteration":819,"passed_time":48.38990757,"remaining_time":10.62217483},
{"learn":[22651.0739],"iteration":820,"passed_time":48.45198731,"remaining_time":10.56383158},
{"learn":[22646.79955],"iteration":821,"passed_time":48.51053513,"remaining_time":10.50471442},
{"learn":[22643.55544],"iteration":822,"passed_time":48.56631936,"remaining_time":10.44500429},
{"learn":[22641.32951],"iteration":823,"passed_time":48.62200054,"remaining_time":10.38528167},
{"learn":[22637.50935],"iteration":824,"passed_time":48.67908907,"remaining_time":10.32586738},
{"learn":[22631.67296],"iteration":825,"passed_time":48.74350879,"remaining_time":10.26800306},
{"learn":[22629.94979],"iteration":826,"passed_time":48.79619699,"remaining_time":10.20766878},
{"learn":[22626.72827],"iteration":827,"passed_time":48.85121335,"remaining_time":10.14783659},
{"learn":[22624.41213],"iteration":828,"passed_time":48.91779633,"remaining_time":10.0904019},
{"learn":[22622.96523],"iteration":829,"passed_time":48.97315209,"remaining_time":10.03064561},
{"learn":[22620.99166],"iteration":830,"passed_time":49.03005038,"remaining_time":9.971213615},
{"learn":[22619.43401],"iteration":831,"passed_time":49.08065971,"remaining_time":9.910517826},
{"learn":[22615.04902],"iteration":832,"passed_time":49.14477892,"remaining_time":9.852554717},
{"learn":[22612.62634],"iteration":833,"passed_time":49.20450159,"remaining_time":9.793701755},
{"learn":[22610.43154],"iteration":834,"passed_time":49.26059745,"remaining_time":9.734130035},
{"learn":[22608.13586],"iteration":835,"passed_time":49.3148769,"remaining_time":9.674210301},
{"learn":[22605.63581],"iteration":836,"passed_time":49.37995278,"remaining_time":9.616406575},
{"learn":[22603.22911],"iteration":837,"passed_time":49.43611612,"remaining_time":9.556862543},
{"learn":[22601.53477],"iteration":838,"passed_time":49.49184421,"remaining_time":9.497243049},
{"learn":[22598.93962],"iteration":839,"passed_time":49.5468506,"remaining_time":9.437495353},
{"learn":[22597.66048],"iteration":840,"passed_time":49.60240812,"remaining_time":9.377863129},
{"learn":[22595.22849],"iteration":841,"passed_time":49.66260612,"remaining_time":9.319111363},
{"learn":[22593.02919],"iteration":842,"passed_time":49.71762915,"remaining_time":9.259392379},
{"learn":[22590.99416],"iteration":843,"passed_time":49.77588281,"remaining_time":9.200281658},
{"learn":[22587.18902],"iteration":844,"passed_time":49.83621246,"remaining_time":9.141553764},
{"learn":[22586.41274],"iteration":845,"passed_time":49.89004912,"remaining_time":9.081640147},
{"learn":[22583.77059],"iteration":846,"passed_time":49.94505927,"remaining_time":9.021952855},
{"learn":[22581.53915],"iteration":847,"passed_time":50.00300693,"remaining_time":8.962803129},
{"learn":[22577.35634],"iteration":848,"passed_time":50.0676316,"remaining_time":8.904843783},
{"learn":[22575.3851],"iteration":849,"passed_time":50.12803602,"remaining_time":8.846124003},
{"learn":[22572.44378],"iteration":850,"passed_time":50.18820258,"remaining_time":8.787358618},
{"learn":[22571.71167],"iteration":851,"passed_time":50.24146233,"remaining_time":8.72739017},
{"learn":[22569.92819],"iteration":852,"passed_time":50.30883442,"remaining_time":8.669869472},
{"learn":[22567.35644],"iteration":853,"passed_time":50.36809699,"remaining_time":8.610939298},
{"learn":[22564.80362],"iteration":854,"passed_time":50.42352662,"remaining_time":8.551358316},
{"learn":[22562.91765],"iteration":855,"passed_time":50.47900266,"remaining_time":8.49179484},
{"learn":[22560.53818],"iteration":856,"passed_time":50.54056185,"remaining_time":8.433255944},
{"learn":[22558.75977],"iteration":857,"passed_time":50.60135394,"remaining_time":8.374583053},
{"learn":[22557.5778],"iteration":858,"passed_time":50.65550433,"remaining_time":8.314815029},
{"learn":[22556.65028],"iteration":859,"passed_time":50.707941,"remaining_time":8.254781093},
{"learn":[22555.23887],"iteration":860,"passed_time":50.76875388,"remaining_time":8.19611706},
{"learn":[22553.70582],"iteration":861,"passed_time":50.82388545,"remaining_time":8.136538506},
{"learn":[22551.08165],"iteration":862,"passed_time":50.87623673,"remaining_time":8.07652889},
{"learn":[22549.08374],"iteration":863,"passed_time":50.93179784,"remaining_time":8.017042253},
{"learn":[22546.66462],"iteration":864,"passed_time":50.99298119,"remaining_time":7.958442151},
{"learn":[22545.83085],"iteration":865,"passed_time":51.04812691,"remaining_time":7.898901854},
{"learn":[22542.77171],"iteration":866,"passed_time":51.10363524,"remaining_time":7.839427321},
{"learn":[22539.97389],"iteration":867,"passed_time":51.15894354,"remaining_time":7.779931506},
{"learn":[22538.52639],"iteration":868,"passed_time":51.21363424,"remaining_time":7.720352227},
{"learn":[22535.93918],"iteration":869,"passed_time":51.27664534,"remaining_time":7.662027465},
{"learn":[22533.82376],"iteration":870,"passed_time":51.33117517,"remaining_time":7.602435817},
{"learn":[22531.46059],"iteration":871,"passed_time":51.38715051,"remaining_time":7.543067965},
{"learn":[22529.39507],"iteration":872,"passed_time":51.45012742,"remaining_time":7.48472644},
{"learn":[22526.38286],"iteration":873,"passed_time":51.50354806,"remaining_time":7.424996632},
{"learn":[22525.32363],"iteration":874,"passed_time":51.55989818,"remaining_time":7.365699741},
{"learn":[22524.35405],"iteration":875,"passed_time":51.61666857,"remaining_time":7.306469067},
{"learn":[22520.77139],"iteration":876,"passed_time":51.67637243,"remaining_time":7.247655426},
{"learn":[22519.15051],"iteration":877,"passed_time":51.73458321,"remaining_time":7.188632291},
{"learn":[22516.82754],"iteration":878,"passed_time":51.78950361,"remaining_time":7.129158062},
{"learn":[22514.90332],"iteration":879,"passed_time":51.84771024,"remaining_time":7.070142305},
{"learn":[22512.99436],"iteration":880,"passed_time":51.90659038,"remaining_time":7.011219359},
{"learn":[22510.64431],"iteration":881,"passed_time":51.96556873,"remaining_time":6.952309649},
{"learn":[22508.21886],"iteration":882,"passed_time":52.02810945,"remaining_time":6.893871808},
{"learn":[22506.03858],"iteration":883,"passed_time":52.08852282,"remaining_time":6.835145528},
{"learn":[22504.26141],"iteration":884,"passed_time":52.15222986,"remaining_time":6.776843429},
{"learn":[22501.86618],"iteration":885,"passed_time":52.20646983,"remaining_time":6.717311016},
{"learn":[22499.597],"iteration":886,"passed_time":52.26885519,"remaining_time":6.658828226},
{"learn":[22497.71575],"iteration":887,"passed_time":52.32138749,"remaining_time":6.599093918},
{"learn":[22496.06353],"iteration":888,"passed_time":52.38668421,"remaining_time":6.540969569},
{"learn":[22494.32136],"iteration":889,"passed_time":52.44067809,"remaining_time":6.481432124},
{"learn":[22492.23949],"iteration":890,"passed_time":52.49358745,"remaining_time":6.421774447},
{"learn":[22489.84634],"iteration":891,"passed_time":52.54905704,"remaining_time":6.362441884},
{"learn":[22487.9672],"iteration":892,"passed_time":52.60359445,"remaining_time":6.303006278},
{"learn":[22486.39151],"iteration":893,"passed_time":52.66185779,"remaining_time":6.244023406},
{"learn":[22484.89956],"iteration":894,"passed_time":52.7160583,"remaining_time":6.184565498},
{"learn":[22483.3577],"iteration":895,"passed_time":52.76884918,"remaining_time":6.124955708},
{"learn":[22481.08231],"iteration":896,"passed_time":52.82646364,"remaining_time":6.065915},
{"learn":[22479.23865],"iteration":897,"passed_time":52.8853673,"remaining_time":6.007023903},
{"learn":[22476.93868],"iteration":898,"passed_time":52.94296777,"remaining_time":5.947986368},
{"learn":[22474.21114],"iteration":899,"passed_time":52.99673412,"remaining_time":5.888526013},
{"learn":[22472.355],"iteration":900,"passed_time":53.05782308,"remaining_time":5.829882891},
{"learn":[22471.20623],"iteration":901,"passed_time":53.11908246,"remaining_time":5.771252861},
{"learn":[22469.63607],"iteration":902,"passed_time":53.17523842,"remaining_time":5.7120688},
{"learn":[22467.73593],"iteration":903,"passed_time":53.2295472,"remaining_time":5.652695278},
{"learn":[22465.79074],"iteration":904,"passed_time":53.28734265,"remaining_time":5.593698952},
{"learn":[22464.34362],"iteration":905,"passed_time":53.34546403,"remaining_time":5.534739094},
{"learn":[22461.85229],"iteration":906,"passed_time":53.40259735,"remaining_time":5.475679772},
{"learn":[22459.94455],"iteration":907,"passed_time":53.46119463,"remaining_time":5.416773024},
{"learn":[22458.32219],"iteration":908,"passed_time":53.52430148,"remaining_time":5.35831841},
{"learn":[22456.26869],"iteration":909,"passed_time":53.57813385,"remaining_time":5.298936315},
{"learn":[22455.36033],"iteration":910,"passed_time":53.63146623,"remaining_time":5.239517557},
{"learn":[22454.14667],"iteration":911,"passed_time":53.68360994,"remaining_time":5.17999745},
{"learn":[22452.28965],"iteration":912,"passed_time":53.74275894,"remaining_time":5.121161038},
{"learn":[22451.08081],"iteration":913,"passed_time":53.79395767,"remaining_time":5.061575886},
{"learn":[22448.87096],"iteration":914,"passed_time":53.85338063,"remaining_time":5.002773064},
{"learn":[22446.01027],"iteration":915,"passed_time":53.91100672,"remaining_time":4.94380411},
{"learn":[22444.91852],"iteration":916,"passed_time":53.97327538,"remaining_time":4.885258295},
{"learn":[22441.9594],"iteration":917,"passed_time":54.0313542,"remaining_time":4.826330114},
{"learn":[22438.14325],"iteration":918,"passed_time":54.0884853,"remaining_time":4.76732025},
{"learn":[22437.18755],"iteration":919,"passed_time":54.14209152,"remaining_time":4.708007959},
{"learn":[22435.79912],"iteration":920,"passed_time":54.20550005,"remaining_time":4.649548865},
{"learn":[22432.86742],"iteration":921,"passed_time":54.2600972,"remaining_time":4.590333603},
{"learn":[22429.96829],"iteration":922,"passed_time":54.32064076,"remaining_time":4.531624419},
{"learn":[22427.9516],"iteration":923,"passed_time":54.37942082,"remaining_time":4.472766215},
{"learn":[22424.873],"iteration":924,"passed_time":54.45104745,"remaining_time":4.414949794},
{"learn":[22421.60578],"iteration":925,"passed_time":54.51276254,"remaining_time":4.356311477},
{"learn":[22418.78674],"iteration":926,"passed_time":54.56626019,"remaining_time":4.297019411},
{"learn":[22417.51513],"iteration":927,"passed_time":54.6215487,"remaining_time":4.237878779},
{"learn":[22415.28648],"iteration":928,"passed_time":54.68400271,"remaining_time":4.179294071},
{"learn":[22413.49959],"iteration":929,"passed_time":54.74141859,"remaining_time":4.120321829},
{"learn":[22409.76731],"iteration":930,"passed_time":54.79813236,"remaining_time":4.061300895},
{"learn":[22407.23309],"iteration":931,"passed_time":54.85120115,"remaining_time":4.002018968},
{"learn":[22405.23628],"iteration":932,"passed_time":54.91166335,"remaining_time":3.943281291},
{"learn":[22404.0549],"iteration":933,"passed_time":54.96696044,"remaining_time":3.884174935},
{"learn":[22400.55204],"iteration":934,"passed_time":55.02349633,"remaining_time":3.825162847},
{"learn":[22397.69098],"iteration":935,"passed_time":55.08353323,"remaining_time":3.766395435},
{"learn":[22395.56088],"iteration":936,"passed_time":55.14113138,"remaining_time":3.707461341},
{"learn":[22393.5217],"iteration":937,"passed_time":55.19823395,"remaining_time":3.64849734},
{"learn":[22391.46703],"iteration":938,"passed_time":55.253804,"remaining_time":3.589437747},
{"learn":[22389.73623],"iteration":939,"passed_time":55.31380678,"remaining_time":3.530668518},
{"learn":[22386.40725],"iteration":940,"passed_time":55.37463745,"remaining_time":3.471948576},
{"learn":[22384.86357],"iteration":941,"passed_time":55.43181273,"remaining_time":3.412999085},
{"learn":[22382.37665],"iteration":942,"passed_time":55.48533769,"remaining_time":3.353832713},
{"learn":[22380.81133],"iteration":943,"passed_time":55.53804511,"remaining_time":3.294629795},
{"learn":[22378.86836],"iteration":944,"passed_time":55.58990326,"remaining_time":3.235391195},
{"learn":[22376.44445],"iteration":945,"passed_time":55.64726361,"remaining_time":3.176482278},
{"learn":[22374.59311],"iteration":946,"passed_time":55.70107212,"remaining_time":3.117377849},
{"learn":[22372.16998],"iteration":947,"passed_time":55.75498016,"remaining_time":3.058290051},
{"learn":[22368.12535],"iteration":948,"passed_time":55.81646793,"remaining_time":2.999620511},
{"learn":[22365.20631],"iteration":949,"passed_time":55.87531349,"remaining_time":2.940805973},
{"learn":[22363.08573],"iteration":950,"passed_time":55.93285124,"remaining_time":2.881923986},
{"learn":[22360.85331],"iteration":951,"passed_time":55.98431092,"remaining_time":2.822738366},
{"learn":[22360.09444],"iteration":952,"passed_time":56.04282375,"remaining_time":2.763916806},
{"learn":[22357.76089],"iteration":953,"passed_time":56.10171419,"remaining_time":2.705114102},
{"learn":[22354.75567],"iteration":954,"passed_time":56.16487468,"remaining_time":2.64651242},
{"learn":[22351.54863],"iteration":955,"passed_time":56.21859189,"remaining_time":2.587466572},
{"learn":[22350.37621],"iteration":956,"passed_time":56.27361076,"remaining_time":2.528490348},
{"learn":[22348.77643],"iteration":957,"passed_time":56.33264024,"remaining_time":2.469698215},
{"learn":[22347.4093],"iteration":958,"passed_time":56.3927504,"remaining_time":2.41095179},
{"learn":[22344.88824],"iteration":959,"passed_time":56.46096248,"remaining_time":2.352540103},
{"learn":[22342.84938],"iteration":960,"passed_time":56.53104749,"remaining_time":2.294184029},
{"learn":[22341.03479],"iteration":961,"passed_time":56.59862088,"remaining_time":2.235704359},
{"learn":[22337.05055],"iteration":962,"passed_time":56.6672282,"remaining_time":2.177245528},
{"learn":[22336.41464],"iteration":963,"passed_time":56.7293576,"remaining_time":2.118523728},
{"learn":[22334.19364],"iteration":964,"passed_time":56.80027951,"remaining_time":2.060113764},
{"learn":[22331.91571],"iteration":965,"passed_time":56.86966997,"remaining_time":2.001623995},
{"learn":[22329.3869],"iteration":966,"passed_time":56.93404311,"remaining_time":1.942940458},
{"learn":[22327.71919],"iteration":967,"passed_time":56.9977374,"remaining_time":1.884222724},
{"learn":[22325.58408],"iteration":968,"passed_time":57.07121711,"remaining_time":1.825807771},
{"learn":[22324.19511],"iteration":969,"passed_time":57.13853949,"remaining_time":1.767171324},
{"learn":[22322.01417],"iteration":970,"passed_time":57.20342623,"remaining_time":1.708444244},
{"learn":[22320.83025],"iteration":971,"passed_time":57.26578388,"remaining_time":1.649631634},
{"learn":[22319.31827],"iteration":972,"passed_time":57.33485796,"remaining_time":1.590998114},
{"learn":[22315.80923],"iteration":973,"passed_time":57.40100074,"remaining_time":1.532264907},
{"learn":[22314.07738],"iteration":974,"passed_time":57.46208038,"remaining_time":1.473386676},
{"learn":[22311.9361],"iteration":975,"passed_time":57.52824119,"remaining_time":1.414628882},
{"learn":[22309.28569],"iteration":976,"passed_time":57.5985519,"remaining_time":1.355953627},
{"learn":[22307.60706],"iteration":977,"passed_time":57.66621703,"remaining_time":1.297195066},
{"learn":[22305.57484],"iteration":978,"passed_time":57.73202671,"remaining_time":1.23837851},
{"learn":[22303.69495],"iteration":979,"passed_time":57.79618841,"remaining_time":1.179514049},
{"learn":[22302.4858],"iteration":980,"passed_time":57.86770149,"remaining_time":1.120781171},
{"learn":[22301.03557],"iteration":981,"passed_time":57.93779883,"remaining_time":1.061996313},
{"learn":[22300.19859],"iteration":982,"passed_time":57.99435762,"remaining_time":1.002954303},
{"learn":[22297.64791],"iteration":983,"passed_time":58.0608443,"remaining_time":0.9440787691},
{"learn":[22294.84183],"iteration":984,"passed_time":58.13030013,"remaining_time":0.8852329969},
{"learn":[22293.1271],"iteration":985,"passed_time":58.19360799,"remaining_time":0.8262784096},
{"learn":[22290.4836],"iteration":986,"passed_time":58.25506494,"remaining_time":0.7672906223},
{"learn":[22288.521],"iteration":987,"passed_time":58.32051761,"remaining_time":0.7083463677},
{"learn":[22287.47105],"iteration":988,"passed_time":58.39164376,"remaining_time":0.6494520539},
{"learn":[22285.90176],"iteration":989,"passed_time":58.45287057,"remaining_time":0.590433036},
{"learn":[22284.04679],"iteration":990,"passed_time":58.51505763,"remaining_time":0.5314182832},
{"learn":[22281.5651],"iteration":991,"passed_time":58.57028051,"remaining_time":0.4723409719},
{"learn":[22279.19824],"iteration":992,"passed_time":58.63375577,"remaining_time":0.4133295976},
{"learn":[22277.40942],"iteration":993,"passed_time":58.7012861,"remaining_time":0.3543337189},
{"learn":[22276.44404],"iteration":994,"passed_time":58.76626915,"remaining_time":0.2953078852},
{"learn":[22273.15101],"iteration":995,"passed_time":58.83825516,"remaining_time":0.2362982135},
{"learn":[22271.79482],"iteration":996,"passed_time":58.90951681,"remaining_time":0.1772603314},
{"learn":[22267.88298],"iteration":997,"passed_time":58.97138247,"remaining_time":0.1181791232},
{"learn":[22265.66449],"iteration":998,"passed_time":59.02834348,"remaining_time":0.05908743091},
{"learn":[22263.33878],"iteration":999,"passed_time":59.09908616,"remaining_time":0}
]}