iter	Passed	Remaining
0	84	84588
1	146	72967
2	201	66884
3	257	64064
4	321	64034
5	380	63027
6	436	61912
7	494	61296
8	550	60646
9	609	60311
10	665	59791
11	720	59324
12	785	59662
13	844	59491
14	899	59048
15	955	58761
16	1016	58771
17	1077	58786
18	1134	58563
19	1196	58637
20	1275	59465
21	1342	59698
22	1400	59470
23	1456	59214
24	1519	59259
25	1581	59246
26	1641	59162
27	1696	58876
28	1754	58754
29	1820	58856
30	1874	58599
31	1931	58423
32	1996	58514
33	2053	58348
34	2111	58207
35	2176	58288
36	2244	58421
37	2312	58532
38	2378	58608
39	2443	58645
40	2513	58787
41	2567	58573
42	2623	58385
43	2676	58160
44	2735	58056
45	2797	58012
46	2852	57845
47	2904	57613
48	2962	57500
49	3021	57400
50	3080	57312
51	3137	57206
52	3201	57205
53	3266	57218
54	3329	57205
55	3387	57102
56	3453	57126
57	3512	57052
58	3572	56972
59	3637	56985
60	3709	57106
61	3780	57193
62	3843	57166
63	3910	57190
64	3978	57224
65	4037	57143
66	4097	57054
67	4162	57056
68	4217	56900
69	4273	56782
70	4328	56632
71	4386	56542
72	4443	56428
73	4495	56253
74	4548	56095
75	4603	55972
76	4665	55927
77	4717	55767
78	4775	55677
79	4839	55648
80	4898	55578
81	4954	55470
82	5008	55336
83	5072	55309
84	5130	55225
85	5181	55071
86	5233	54917
87	5287	54797
88	5350	54765
89	5406	54668
90	5458	54522
91	5518	54467
92	5575	54373
93	5631	54282
94	5690	54206
95	5752	54165
96	5810	54095
97	5861	53947
98	5913	53821
99	5967	53706
100	6034	53711
101	6096	53670
102	6161	53658
103	6232	53692
104	6298	53683
105	6357	53618
106	6421	53591
107	6491	53616
108	6553	53571
109	6619	53559
110	6685	53540
111	6753	53545
112	6817	53516
113	6889	53548
114	6947	53462
115	7012	53440
116	7063	53307
117	7116	53193
118	7175	53124
119	7242	53112
120	7306	53077
121	7364	53000
122	7424	52939
123	7488	52900
124	7550	52852
125	7606	52762
126	7668	52712
127	7725	52626
128	7787	52578
129	7842	52487
130	7905	52443
131	7966	52384
132	8027	52328
133	8083	52242
134	8141	52162
135	8200	52095
136	8248	51960
137	8311	51917
138	8367	51829
139	8424	51748
140	8484	51692
141	8535	51576
142	8585	51450
143	8645	51393
144	8701	51310
145	8750	51184
146	8801	51074
147	8855	50978
148	8911	50895
149	8960	50778
150	9016	50696
151	9073	50622
152	9129	50539
153	9185	50461
154	9246	50408
155	9319	50421
156	9375	50339
157	9430	50257
158	9484	50166
159	9539	50082
160	9595	50002
161	9647	49904
162	9697	49796
163	9752	49712
164	9803	49612
165	9850	49488
166	9904	49402
167	9961	49334
168	10026	49300
169	10076	49195
170	10127	49099
171	10191	49059
172	10240	48951
173	10297	48883
174	10354	48813
175	10407	48724
176	10460	48639
177	10518	48572
178	10576	48511
179	10650	48520
180	10713	48476
181	10772	48416
182	10832	48362
183	10888	48288
184	10953	48253
185	11008	48177
186	11067	48114
187	11133	48089
188	11192	48025
189	11251	47968
190	11307	47893
191	11365	47829
192	11424	47770
193	11483	47709
194	11539	47639
195	11600	47586
196	11655	47510
197	11713	47445
198	11765	47356
199	11819	47278
200	11877	47215
201	11929	47125
202	11978	47030
203	12034	46957
204	12091	46890
205	12137	46783
206	12187	46689
207	12239	46602
208	12299	46549
209	12350	46461
210	12406	46392
211	12464	46328
212	12523	46272
213	12576	46190
214	12631	46118
215	12690	46063
216	12743	45983
217	12802	45923
218	12854	45843
219	12911	45777
220	12969	45716
221	13022	45635
222	13073	45553
223	13130	45487
224	13187	45423
225	13243	45356
226	13298	45284
227	13352	45211
228	13410	45150
229	13468	45089
230	13526	45030
231	13582	44963
232	13633	44878
233	13685	44800
234	13739	44725
235	13795	44659
236	13858	44615
237	13908	44531
238	13962	44458
239	14025	44413
240	14080	44344
241	14138	44285
242	14195	44222
243	14252	44157
244	14309	44096
245	14362	44021
246	14414	43943
247	14476	43895
248	14538	43849
249	14595	43785
250	14650	43718
251	14716	43682
252	14774	43623
253	14835	43572
254	14893	43511
255	14957	43470
256	15014	43406
257	15068	43336
258	15127	43279
259	15189	43232
260	15258	43202
261	15323	43163
262	15392	43135
263	15462	43108
264	15538	43096
265	15607	43067
266	15683	43057
267	15745	43005
268	15805	42952
269	15876	42924
270	15941	42884
271	15996	42813
272	16054	42752
273	16112	42693
274	16168	42626
275	16227	42566
276	16279	42491
277	16340	42438
278	16394	42367
279	16449	42297
280	16499	42216
281	16561	42167
282	16621	42111
283	16677	42046
284	16733	41979
285	16790	41916
286	16845	41849
287	16900	41782
288	16958	41720
289	17013	41654
290	17075	41603
291	17127	41527
292	17182	41459
293	17228	41372
294	17293	41327
295	17344	41252
296	17399	41184
297	17459	41129
298	17515	41064
299	17571	40999
300	17627	40936
301	17689	40884
302	17748	40826
303	17806	40766
304	17862	40703
305	17923	40649
306	17973	40571
307	18022	40492
308	18072	40413
309	18129	40353
310	18183	40285
311	18236	40213
312	18290	40145
313	18348	40086
314	18404	40022
315	18457	39953
316	18511	39885
317	18564	39813
318	18618	39746
319	18671	39677
320	18719	39595
321	18773	39529
322	18829	39467
323	18885	39402
324	18937	39330
325	18992	39267
326	19054	39216
327	19106	39144
328	19162	39082
329	19221	39026
330	19278	38963
331	19333	38899
332	19397	38853
333	19465	38814
334	19520	38749
335	19572	38678
336	19629	38619
337	19687	38559
338	19742	38495
339	19798	38433
340	19850	38361
341	19909	38305
342	19962	38237
343	20014	38167
344	20064	38093
345	20114	38019
346	20168	37953
347	20227	37898
348	20282	37833
349	20339	37773
350	20390	37702
351	20443	37633
352	20496	37567
353	20553	37507
354	20608	37443
355	20659	37372
356	20713	37307
357	20771	37249
358	20832	37196
359	20887	37133
360	20943	37071
361	21000	37012
362	21057	36951
363	21110	36885
364	21162	36817
365	21209	36740
366	21265	36678
367	21322	36619
368	21375	36552
369	21430	36489
370	21483	36423
371	21539	36363
372	21589	36291
373	21642	36224
374	21697	36162
375	21749	36094
376	21800	36025
377	21863	35976
378	21925	35924
379	21986	35872
380	22040	35808
381	22103	35758
382	22155	35691
383	22212	35632
384	22260	35559
385	22315	35496
386	22372	35438
387	22424	35370
388	22476	35303
389	22534	35245
390	22589	35184
391	22649	35129
392	22700	35062
393	22755	34999
394	22810	34937
395	22861	34870
396	22913	34802
397	22979	34757
398	23058	34731
399	23124	34686
400	23194	34646
401	23259	34600
402	23323	34551
403	23396	34515
404	23477	34491
405	23543	34444
406	23596	34380
407	23662	34333
408	23719	34274
409	23771	34208
410	23833	34155
411	23890	34096
412	23952	34043
413	24009	33984
414	24071	33932
415	24130	33875
416	24190	33820
417	24251	33766
418	24308	33706
419	24372	33657
420	24445	33620
421	24515	33578
422	24592	33545
423	24661	33502
424	24715	33438
425	24779	33388
426	24833	33324
427	24891	33265
428	24958	33219
429	25031	33180
430	25100	33137
431	25167	33090
432	25232	33041
433	25301	32996
434	25362	32942
435	25423	32887
436	25491	32841
437	25555	32789
438	25622	32742
439	25687	32693
440	25755	32646
441	25821	32598
442	25883	32543
443	25948	32493
444	26012	32442
445	26080	32396
446	26147	32347
447	26214	32299
448	26282	32252
449	26343	32197
450	26403	32141
451	26468	32090
452	26532	32038
453	26598	31988
454	26659	31932
455	26724	31882
456	26785	31826
457	26839	31761
458	26897	31702
459	26956	31644
460	27012	31583
461	27065	31517
462	27126	31461
463	27191	31410
464	27245	31347
465	27307	31292
466	27365	31232
467	27427	31178
468	27492	31126
469	27551	31068
470	27612	31012
471	27670	30953
472	27732	30898
473	27791	30840
474	27842	30773
475	27901	30714
476	27961	30658
477	28012	30591
478	28072	30533
479	28127	30471
480	28183	30410
481	28246	30356
482	28299	30291
483	28356	30231
484	28412	30169
485	28468	30108
486	28521	30044
487	28578	29983
488	28640	29929
489	28704	29876
490	28770	29825
491	28840	29778
492	28899	29720
493	28957	29660
494	29016	29602
495	29082	29552
496	29141	29493
497	29194	29428
498	29250	29367
499	29310	29310
500	29374	29257
501	29433	29198
502	29494	29142
503	29554	29085
504	29616	29029
505	29669	28965
506	29724	28903
507	29787	28848
508	29840	28785
509	29895	28723
510	29949	28660
511	30010	28603
512	30074	28550
513	30135	28493
514	30190	28431
515	30260	28383
516	30321	28327
517	30376	28265
518	30427	28199
519	30486	28141
520	30538	28076
521	30598	28019
522	30650	27954
523	30707	27894
524	30765	27835
525	30822	27775
526	30875	27711
527	30935	27654
528	30997	27599
529	31052	27537
530	31116	27483
531	31191	27439
532	31251	27381
533	31312	27324
534	31373	27268
535	31428	27206
536	31489	27149
537	31550	27093
538	31611	27036
539	31671	26979
540	31738	26927
541	31790	26863
542	31843	26800
543	31902	26742
544	31965	26686
545	32019	26624
546	32074	26562
547	32132	26503
548	32195	26448
549	32254	26389
550	32316	26333
551	32385	26283
552	32446	26227
553	32505	26168
554	32567	26112
555	32632	26059
556	32696	26004
557	32760	25950
558	32819	25891
559	32885	25838
560	32937	25774
561	32990	25711
562	33048	25652
563	33111	25596
564	33174	25541
565	33226	25477
566	33287	25420
567	33351	25366
568	33413	25309
569	33472	25251
570	33528	25190
571	33592	25135
572	33646	25073
573	33699	25010
574	33755	24949
575	33815	24892
576	33874	24833
577	33929	24771
578	33982	24709
579	34041	24650
580	34097	24590
581	34155	24530
582	34217	24474
583	34280	24419
584	34334	24356
585	34389	24295
586	34449	24237
587	34503	24175
588	34564	24118
589	34617	24056
590	34673	23995
591	34731	23936
592	34789	23877
593	34845	23816
594	34904	23758
595	34966	23701
596	35026	23644
597	35087	23587
598	35150	23531
599	35215	23476
600	35272	23416
601	35328	23356
602	35382	23294
603	35440	23235
604	35507	23182
605	35567	23124
606	35630	23068
607	35700	23017
608	35765	22962
609	35826	22905
610	35887	22848
611	35950	22792
612	36009	22733
613	36075	22679
614	36131	22619
615	36192	22561
616	36253	22504
617	36309	22443
618	36371	22387
619	36452	22341
620	36537	22298
621	36612	22249
622	36678	22195
623	36743	22140
624	36810	22086
625	36877	22032
626	36946	21979
627	37015	21926
628	37084	21873
629	37159	21823
630	37233	21773
631	37299	21718
632	37365	21663
633	37430	21607
634	37500	21555
635	37555	21493
636	37628	21442
637	37692	21386
638	37747	21325
639	37806	21266
640	37865	21207
641	37922	21146
642	37979	21086
643	38040	21028
644	38118	20980
645	38181	20922
646	38243	20865
647	38303	20806
648	38366	20749
649	38426	20691
650	38482	20630
651	38537	20569
652	38597	20510
653	38656	20451
654	38714	20391
655	38773	20332
656	38833	20273
657	38889	20213
658	38946	20152
659	39004	20092
660	39061	20033
661	39122	19974
662	39175	19912
663	39232	19852
664	39295	19795
665	39349	19733
666	39408	19674
667	39462	19612
668	39522	19554
669	39578	19493
670	39631	19431
671	39687	19371
672	39746	19312
673	39804	19252
674	39863	19193
675	39919	19132
676	39977	19073
677	40035	19013
678	40094	18954
679	40149	18893
680	40215	18838
681	40274	18778
682	40337	18721
683	40392	18660
684	40449	18600
685	40513	18544
686	40566	18482
687	40629	18425
688	40705	18373
689	40768	18316
690	40824	18255
691	40878	18194
692	40938	18135
693	40997	18076
694	41067	18022
695	41122	17961
696	41187	17904
697	41240	17843
698	41297	17783
699	41350	17721
700	41404	17660
701	41460	17600
702	41512	17538
703	41571	17478
704	41625	17417
705	41683	17358
706	41738	17297
707	41795	17237
708	41859	17180
709	41916	17120
710	41970	17059
711	42023	16998
712	42078	16937
713	42135	16877
714	42189	16816
715	42244	16756
716	42299	16695
717	42355	16635
718	42409	16574
719	42462	16513
720	42519	16453
721	42576	16393
722	42626	16331
723	42681	16270
724	42735	16210
725	42797	16152
726	42854	16092
727	42907	16031
728	42963	15971
729	43019	15911
730	43076	15851
731	43129	15790
732	43190	15732
733	43248	15673
734	43301	15612
735	43363	15554
736	43423	15495
737	43481	15436
738	43534	15375
739	43593	15316
740	43651	15257
741	43708	15197
742	43760	15136
743	43810	15074
744	43867	15015
745	43924	14955
746	43975	14894
747	44026	14832
748	44086	14773
749	44150	14716
750	44209	14658
751	44262	14597
752	44320	14538
753	44375	14477
754	44433	14418
755	44493	14360
756	44555	14302
757	44613	14243
758	44664	14181
759	44718	14121
760	44779	14063
761	44830	14002
762	44884	13941
763	44939	13881
764	44993	13821
765	45048	13761
766	45103	13701
767	45161	13642
768	45218	13583
769	45268	13521
770	45330	13463
771	45394	13406
772	45466	13351
773	45536	13296
774	45600	13238
775	45664	13181
776	45734	13125
777	45795	13067
778	45867	13012
779	45926	12953
780	46005	12900
781	46075	12844
782	46133	12785
783	46201	12729
784	46277	12674
785	46344	12618
786	46401	12558
787	46459	12499
788	46521	12441
789	46582	12382
790	46640	12323
791	46697	12263
792	46761	12206
793	46833	12150
794	46895	12092
795	46952	12033
796	47017	11975
797	47080	11917
798	47144	11859
799	47200	11800
800	47263	11742
801	47324	11683
802	47381	11624
803	47435	11563
804	47499	11506
805	47562	11447
806	47620	11388
807	47680	11329
808	47747	11272
809	47809	11214
810	47869	11155
811	47931	11097
812	47992	11038
813	48048	10979
814	48103	10919
815	48159	10859
816	48221	10801
817	48277	10741
818	48328	10680
819	48389	10622
820	48451	10563
821	48510	10504
822	48566	10445
823	48622	10385
824	48679	10325
825	48743	10268
826	48796	10207
827	48851	10147
828	48917	10090
829	48973	10030
830	49030	9971
831	49080	9910
832	49144	9852
833	49204	9793
834	49260	9734
835	49314	9674
836	49379	9616
837	49436	9556
838	49491	9497
839	49546	9437
840	49602	9377
841	49662	9319
842	49717	9259
843	49775	9200
844	49836	9141
845	49890	9081
846	49945	9021
847	50003	8962
848	50067	8904
849	50128	8846
850	50188	8787
851	50241	8727
852	50308	8669
853	50368	8610
854	50423	8551
855	50479	8491
856	50540	8433
857	50601	8374
858	50655	8314
859	50707	8254
860	50768	8196
861	50823	8136
862	50876	8076
863	50931	8017
864	50992	7958
865	51048	7898
866	51103	7839
867	51158	7779
868	51213	7720
869	51276	7662
870	51331	7602
871	51387	7543
872	51450	7484
873	51503	7424
874	51559	7365
875	51616	7306
876	51676	7247
877	51734	7188
878	51789	7129
879	51847	7070
880	51906	7011
881	51965	6952
882	52028	6893
883	52088	6835
884	52152	6776
885	52206	6717
886	52268	6658
887	52321	6599
888	52386	6540
889	52440	6481
890	52493	6421
891	52549	6362
892	52603	6303
893	52661	6244
894	52716	6184
895	52768	6124
896	52826	6065
897	52885	6007
898	52942	5947
899	52996	5888
900	53057	5829
901	53119	5771
902	53175	5712
903	53229	5652
904	53287	5593
905	53345	5534
906	53402	5475
907	53461	5416
908	53524	5358
909	53578	5298
910	53631	5239
911	53683	5179
912	53742	5121
913	53793	5061
914	53853	5002
915	53911	4943
916	53973	4885
917	54031	4826
918	54088	4767
919	54142	4708
920	54205	4649
921	54260	4590
922	54320	4531
923	54379	4472
924	54451	4414
925	54512	4356
926	54566	4297
927	54621	4237
928	54684	4179
929	54741	4120
930	54798	4061
931	54851	4002
932	54911	3943
933	54966	3884
934	55023	3825
935	55083	3766
936	55141	3707
937	55198	3648
938	55253	3589
939	55313	3530
940	55374	3471
941	55431	3412
942	55485	3353
943	55538	3294
944	55589	3235
945	55647	3176
946	55701	3117
947	55754	3058
948	55816	2999
949	55875	2940
950	55932	2881
951	55984	2822
952	56042	2763
953	56101	2705
954	56164	2646
955	56218	2587
956	56273	2528
957	56332	2469
958	56392	2410
959	56460	2352
960	56531	2294
961	56598	2235
962	56667	2177
963	56729	2118
964	56800	2060
965	56869	2001
966	56934	1942
967	56997	1884
968	57071	1825
969	57138	1767
970	57203	1708
971	57265	1649
972	57334	1590
973	57401	1532
974	57462	1473
975	57528	1414
976	57598	1355
977	57666	1297
978	57732	1238
979	57796	1179
980	57867	1120
981	57937	1061
982	57994	1002
983	58060	944
984	58130	885
985	58193	826
986	58255	767
987	58320	708
988	58391	649
989	58452	590
990	58515	531
991	58570	472
992	58633	413
993	58701	354
994	58766	295
995	58838	236
996	58909	177
997	58971	118
998	59028	59
999	59099	0
